2017_spring_semester/digital_system_design/2013136021_김영규_실습9/ringCount/simulation/qsim/ringCount.msim.vcd
$comment
	File created using the following command:
		vcd file ringCount.msim.vcd -direction
$end
$date
	Tue May 16 16:17:17 2017
$end
$version
	ModelSim Version 10.1d
$end
$timescale
	1ps
$end
$scope module ringCount_vlg_vec_tst $end
$var reg 1 ! clk $end
$var reg 1 " reset $end
$var wire 1 # count [7] $end
$var wire 1 $ count [6] $end
$var wire 1 % count [5] $end
$var wire 1 & count [4] $end
$var wire 1 ' count [3] $end
$var wire 1 ( count [2] $end
$var wire 1 ) count [1] $end
$var wire 1 * count [0] $end
$var wire 1 + sampler $end
$scope module i1 $end
$var wire 1 , gnd $end
$var wire 1 - vcc $end
$var wire 1 . unknown $end
$var tri1 1 / devclrn $end
$var tri1 1 0 devpor $end
$var tri1 1 1 devoe $end
$var wire 1 2 count[0]~output_o $end
$var wire 1 3 count[1]~output_o $end
$var wire 1 4 count[2]~output_o $end
$var wire 1 5 count[3]~output_o $end
$var wire 1 6 count[4]~output_o $end
$var wire 1 7 count[5]~output_o $end
$var wire 1 8 count[6]~output_o $end
$var wire 1 9 count[7]~output_o $end
$var wire 1 : clk~input_o $end
$var wire 1 ; clk~inputclkctrl_outclk $end
$var wire 1 < count[1]~1_combout $end
$var wire 1 = reset~input_o $end
$var wire 1 > reset~inputclkctrl_outclk $end
$var wire 1 ? count[1]~reg0_q $end
$var wire 1 @ count[2]~reg0feeder_combout $end
$var wire 1 A count[2]~reg0_q $end
$var wire 1 B count[3]~reg0feeder_combout $end
$var wire 1 C count[3]~reg0_q $end
$var wire 1 D count[4]~reg0feeder_combout $end
$var wire 1 E count[4]~reg0_q $end
$var wire 1 F count[5]~reg0feeder_combout $end
$var wire 1 G count[5]~reg0_q $end
$var wire 1 H count[6]~reg0feeder_combout $end
$var wire 1 I count[6]~reg0_q $end
$var wire 1 J count[7]~reg0feeder_combout $end
$var wire 1 K count[7]~reg0_q $end
$var wire 1 L count[0]~0_combout $end
$var wire 1 M count[0]~reg0_q $end
$upscope $end
$upscope $end
$enddefinitions $end
#0
$dumpvars
0!
0"
1*
0)
0(
0'
0&
0%
0$
0#
x+
0,
1-
x.
1/
10
11
12
03
04
05
06
07
08
09
0:
0;
1<
0=
0>
0?
0@
0A
0B
0C
0D
0E
0F
0G
0H
0I
0J
0K
1L
0M
$end
#10000
1!
1:
1;
0+
1M
1?
0<
1@
02
13
0*
1)
#20000
0!
0:
0;
1+
#30000
1!
1:
1;
0+
1A
0?
1B
0@
14
03
1(
0)
#40000
0!
0:
0;
1+
#50000
1!
1:
1;
0+
1C
0A
1D
0B
15
04
1'
0(
#60000
0!
0:
0;
1+
#70000
1!
1:
1;
0+
1E
0C
1F
0D
16
05
1&
0'
#80000
0!
0:
0;
1+
#90000
1!
1:
1;
0+
1G
0E
1H
0F
17
06
1%
0&
#100000
0!
0:
0;
1+
#110000
1!
1:
1;
0+
1I
0G
1J
0H
18
07
1$
0%
#120000
0!
0:
0;
1+
#130000
1!
1:
1;
0+
1K
0I
0L
0J
19
08
1#
0$
#140000
0!
0:
0;
1+
#150000
1!
1:
1;
0+
0M
0K
1<
1L
12
09
1*
0#
#160000
0!
0:
0;
1+
#170000
1!
1:
1;
0+
1M
1?
0<
1@
02
13
0*
1)
#180000
0!
0:
0;
1+
#190000
1!
1:
1;
0+
1A
0?
1B
0@
14
03
1(
0)
#200000
0!
0:
0;
1+
#210000
1!
1:
1;
0+
1C
0A
1D
0B
15
04
1'
0(
#220000
1"
0!
1=
0:
1>
0;
1+
0M
0C
1<
0D
12
05
1*
0'
#230000
1!
1:
1;
0+
#240000
0!
0:
0;
1+
#250000
0"
1!
0=
1:
0>
1;
0+
#260000
0!
0:
0;
1+
#270000
1!
1:
1;
0+
1M
1?
0<
1@
02
13
0*
1)
#280000
0!
0:
0;
1+
#290000
1!
1:
1;
0+
1A
0?
1B
0@
14
03
1(
0)
#300000
0!
0:
0;
1+
#310000
1!
1:
1;
0+
1C
0A
1D
0B
15
04
1'
0(
#320000
0!
0:
0;
1+
#330000
1!
1:
1;
0+
1E
0C
1F
0D
16
05
1&
0'
#340000
0!
0:
0;
1+
#350000
1!
1:
1;
0+
1G
0E
1H
0F
17
06
1%
0&
#360000
0!
0:
0;
1+
#370000
1!
1:
1;
0+
1I
0G
1J
0H
18
07
1$
0%
#380000
0!
0:
0;
1+
#390000
1!
1:
1;
0+
1K
0I
0L
0J
19
08
1#
0$
#400000
0!
0:
0;
1+
#410000
1!
1:
1;
0+
0M
0K
1<
1L
12
09
1*
0#
#420000
0!
0:
0;
1+
#430000
1!
1:
1;
0+
1M
1?
0<
1@
02
13
0*
1)
#440000
0!
0:
0;
1+
#450000
1!
1:
1;
0+
1A
0?
1B
0@
14
03
1(
0)
#460000
0!
0:
0;
1+
#470000
1!
1:
1;
0+
1C
0A
1D
0B
15
04
1'
0(
#480000
0!
0:
0;
1+
#490000
1!
1:
1;
0+
1E
0C
1F
0D
16
05
1&
0'
#500000
0!
0:
0;
1+
#510000
1!
1:
1;
0+
1G
0E
1H
0F
17
06
1%
0&
#520000
0!
0:
0;
1+
#530000
1!
1:
1;
0+
1I
0G
1J
0H
18
07
1$
0%
#540000
0!
0:
0;
1+
#550000
1!
1:
1;
0+
1K
0I
0L
0J
19
08
1#
0$
#560000
0!
0:
0;
1+
#570000
1!
1:
1;
0+
0M
0K
1<
1L
12
09
1*
0#
#580000
0!
0:
0;
1+
#590000
1!
1:
1;
0+
1M
1?
0<
1@
02
13
0*
1)
#600000
0!
0:
0;
1+
#610000
1!
1:
1;
0+
1A
0?
1B
0@
14
03
1(
0)
#620000
0!
0:
0;
1+
#630000
1!
1:
1;
0+
1C
0A
1D
0B
15
04
1'
0(
#640000
0!
0:
0;
1+
#650000
1!
1:
1;
0+
1E
0C
1F
0D
16
05
1&
0'
#660000
0!
0:
0;
1+
#670000
1!
1:
1;
0+
1G
0E
1H
0F
17
06
1%
0&
#680000
0!
0:
0;
1+
#690000
1!
1:
1;
0+
1I
0G
1J
0H
18
07
1$
0%
#700000
0!
0:
0;
1+
#710000
1!
1:
1;
0+
1K
0I
0L
0J
19
08
1#
0$
#720000
0!
0:
0;
1+
#730000
1!
1:
1;
0+
0M
0K
1<
1L
12
09
1*
0#
#740000
0!
0:
0;
1+
#750000
1!
1:
1;
0+
1M
1?
0<
1@
02
13
0*
1)
#760000
0!
0:
0;
1+
#770000
1!
1:
1;
0+
1A
0?
1B
0@
14
03
1(
0)
#780000
0!
0:
0;
1+
#790000
1!
1:
1;
0+
1C
0A
1D
0B
15
04
1'
0(
#800000
0!
0:
0;
1+
#810000
1!
1:
1;
0+
1E
0C
1F
0D
16
05
1&
0'
#820000
0!
0:
0;
1+
#830000
1!
1:
1;
0+
1G
0E
1H
0F
17
06
1%
0&
#840000
0!
0:
0;
1+
#850000
1!
1:
1;
0+
1I
0G
1J
0H
18
07
1$
0%
#860000
0!
0:
0;
1+
#870000
1!
1:
1;
0+
1K
0I
0L
0J
19
08
1#
0$
#880000
0!
0:
0;
1+
#890000
1!
1:
1;
0+
0M
0K
1<
1L
12
09
1*
0#
#900000
0!
0:
0;
1+
#910000
1!
1:
1;
0+
1M
1?
0<
1@
02
13
0*
1)
#920000
0!
0:
0;
1+
#930000
1!
1:
1;
0+
1A
0?
1B
0@
14
03
1(
0)
#940000
0!
0:
0;
1+
#950000
1!
1:
1;
0+
1C
0A
1D
0B
15
04
1'
0(
#960000
0!
0:
0;
1+
#970000
1!
1:
1;
0+
1E
0C
1F
0D
16
05
1&
0'
#980000
0!
0:
0;
1+
#990000
1!
1:
1;
0+
1G
0E
1H
0F
17
06
1%
0&
