2017_spring_semester/digital_system_design/2013136021_김영규_기말과제_검도로봇/KYGLJY_Robot/simulation/qsim/KYGLJY_Robot.msim.vcd
$comment
	File created using the following command:
		vcd file KYGLJY_Robot.msim.vcd -direction
$end
$date
	Sat Jun 17 14:45:06 2017
$end
$version
	ModelSim Version 10.1d
$end
$timescale
	1ps
$end
$scope module KYGLJY_Robot_vlg_vec_tst $end
$var reg 1 ! clk $end
$var reg 1 " HS_Echo $end
$var reg 1 # IR1_input $end
$var reg 1 $ IR2_input $end
$var wire 1 % HS_Trigger $end
$var wire 1 & SBM_output $end
$var wire 1 ' STM1_output [3] $end
$var wire 1 ( STM1_output [2] $end
$var wire 1 ) STM1_output [1] $end
$var wire 1 * STM1_output [0] $end
$var wire 1 + STM2_output [3] $end
$var wire 1 , STM2_output [2] $end
$var wire 1 - STM2_output [1] $end
$var wire 1 . STM2_output [0] $end
$var wire 1 / sampler $end
$scope module i1 $end
$var wire 1 0 gnd $end
$var wire 1 1 vcc $end
$var wire 1 2 unknown $end
$var tri1 1 3 devclrn $end
$var tri1 1 4 devpor $end
$var tri1 1 5 devoe $end
$var wire 1 6 u4|clock:m[31]~q $end
$var wire 1 7 u4|clock:m[3]~q $end
$var wire 1 8 u4|clock:m[13]~q $end
$var wire 1 9 u4|clock:m[19]~q $end
$var wire 1 : u4|clock:m[21]~q $end
$var wire 1 ; u4|clock:m[30]~q $end
$var wire 1 < u3|TrigerOut:m[31]~q $end
$var wire 1 = u3|TrigerOut:m[3]~q $end
$var wire 1 > u3|TrigerOut:m[15]~q $end
$var wire 1 ? u3|TrigerOut:m[21]~q $end
$var wire 1 @ u3|TrigerOut:m[27]~q $end
$var wire 1 A u4|clock:m[3]~1_combout $end
$var wire 1 B u4|clock:m[13]~1_combout $end
$var wire 1 C u4|clock:m[19]~1_combout $end
$var wire 1 D u4|clock:m[21]~1_combout $end
$var wire 1 E u4|clock:m[29]~2 $end
$var wire 1 F u4|clock:m[30]~1_combout $end
$var wire 1 G u4|clock:m[30]~2 $end
$var wire 1 H u4|clock:m[31]~1_combout $end
$var wire 1 I u3|TrigerOut:m[3]~1_combout $end
$var wire 1 J u3|TrigerOut:m[15]~1_combout $end
$var wire 1 K u3|TrigerOut:m[21]~1_combout $end
$var wire 1 L u3|TrigerOut:m[27]~1_combout $end
$var wire 1 M u3|TrigerOut:m[30]~2 $end
$var wire 1 N u3|TrigerOut:m[31]~1_combout $end
$var wire 1 O u5|u1|tc[1]~4_combout $end
$var wire 1 P u5|u1|tc[3]~8_combout $end
$var wire 1 Q u4|LessThan0~0_combout $end
$var wire 1 R u4|LessThan0~4_combout $end
$var wire 1 S u3|LessThan0~7_combout $end
$var wire 1 T HS_Echo~input_o $end
$var wire 1 U IR2_input~input_o $end
$var wire 1 V IR1_input~input_o $end
$var wire 1 W STM1_output[0]~output_o $end
$var wire 1 X STM1_output[1]~output_o $end
$var wire 1 Y STM1_output[2]~output_o $end
$var wire 1 Z STM1_output[3]~output_o $end
$var wire 1 [ STM2_output[0]~output_o $end
$var wire 1 \ STM2_output[1]~output_o $end
$var wire 1 ] STM2_output[2]~output_o $end
$var wire 1 ^ STM2_output[3]~output_o $end
$var wire 1 _ SBM_output~output_o $end
$var wire 1 ` HS_Trigger~output_o $end
$var wire 1 a u5|u1|tc[0]~12_combout $end
$var wire 1 b u5|u1|tc[1]~5 $end
$var wire 1 c u5|u1|tc[2]~6_combout $end
$var wire 1 d u5|u1|tc[2]~7 $end
$var wire 1 e u5|u1|tc[3]~9 $end
$var wire 1 f u5|u1|tc[4]~10_combout $end
$var wire 1 g u5|u1|tclk~feeder_combout $end
$var wire 1 h u5|u1|tclk~q $end
$var wire 1 i u5|u1|tclk~clkctrl_outclk $end
$var wire 1 j u5|u1|state.s0~0_combout $end
$var wire 1 k u5|u1|state.s0~q $end
$var wire 1 l u5|u1|state.s1~0_combout $end
$var wire 1 m u5|u1|state.s1~q $end
$var wire 1 n u5|u1|state.s2~feeder_combout $end
$var wire 1 o u5|u1|state.s2~q $end
$var wire 1 p u5|u1|state.s3~feeder_combout $end
$var wire 1 q u5|u1|state.s3~q $end
$var wire 1 r u5|u1|q[0]~0_combout $end
$var wire 1 s u5|u1|q[1]~feeder_combout $end
$var wire 1 t u5|u1|q[2]~1_combout $end
$var wire 1 u u5|u1|q[3]~2_combout $end
$var wire 1 v u5|u2|tclk~feeder_combout $end
$var wire 1 w u5|u2|tclk~q $end
$var wire 1 x u5|u2|tclk~clkctrl_outclk $end
$var wire 1 y u5|u2|state.s0~0_combout $end
$var wire 1 z u5|u2|state.s0~q $end
$var wire 1 { u5|u2|state.s1~0_combout $end
$var wire 1 | u5|u2|state.s1~q $end
$var wire 1 } u5|u2|state.s2~feeder_combout $end
$var wire 1 ~ u5|u2|state.s2~q $end
$var wire 1 !! u5|u2|state.s3~feeder_combout $end
$var wire 1 "! u5|u2|state.s3~q $end
$var wire 1 #! u5|u2|q[0]~0_combout $end
$var wire 1 $! u5|u2|q[1]~feeder_combout $end
$var wire 1 %! u5|u2|q[2]~1_combout $end
$var wire 1 &! u5|u2|q[3]~2_combout $end
$var wire 1 '! clk~input_o $end
$var wire 1 (! clk~inputclkctrl_outclk $end
$var wire 1 )! u4|clock:m[0]~1_combout $end
$var wire 1 *! u4|clock:m[0]~q $end
$var wire 1 +! u4|clock:m[0]~2 $end
$var wire 1 ,! u4|clock:m[1]~1_combout $end
$var wire 1 -! u4|clock:m[1]~q $end
$var wire 1 .! u4|clock:m[1]~2 $end
$var wire 1 /! u4|clock:m[2]~1_combout $end
$var wire 1 0! u4|clock:m[2]~q $end
$var wire 1 1! u4|clock:m[2]~2 $end
$var wire 1 2! u4|clock:m[3]~2 $end
$var wire 1 3! u4|clock:m[4]~1_combout $end
$var wire 1 4! u4|clock:m[4]~q $end
$var wire 1 5! u4|clock:m[4]~2 $end
$var wire 1 6! u4|clock:m[5]~2 $end
$var wire 1 7! u4|clock:m[6]~2 $end
$var wire 1 8! u4|clock:m[7]~1_combout $end
$var wire 1 9! u4|clock:m[7]~q $end
$var wire 1 :! u4|clock:m[5]~1_combout $end
$var wire 1 ;! u4|clock:m[5]~q $end
$var wire 1 <! u4|clock:m[6]~1_combout $end
$var wire 1 =! u4|clock:m[6]~q $end
$var wire 1 >! u4|LessThan0~1_combout $end
$var wire 1 ?! u4|clock:m[7]~2 $end
$var wire 1 @! u4|clock:m[8]~1_combout $end
$var wire 1 A! u4|clock:m[8]~q $end
$var wire 1 B! u4|clock:m[8]~2 $end
$var wire 1 C! u4|clock:m[9]~1_combout $end
$var wire 1 D! u4|clock:m[9]~q $end
$var wire 1 E! u4|clock:m[9]~2 $end
$var wire 1 F! u4|clock:m[10]~1_combout $end
$var wire 1 G! u4|clock:m[10]~q $end
$var wire 1 H! u4|clock:m[10]~2 $end
$var wire 1 I! u4|clock:m[11]~1_combout $end
$var wire 1 J! u4|clock:m[11]~q $end
$var wire 1 K! u4|LessThan0~2_combout $end
$var wire 1 L! u4|clock:m[11]~2 $end
$var wire 1 M! u4|clock:m[12]~1_combout $end
$var wire 1 N! u4|clock:m[12]~q $end
$var wire 1 O! u4|clock:m[12]~2 $end
$var wire 1 P! u4|clock:m[13]~2 $end
$var wire 1 Q! u4|clock:m[14]~1_combout $end
$var wire 1 R! u4|clock:m[14]~q $end
$var wire 1 S! u4|clock:m[14]~2 $end
$var wire 1 T! u4|clock:m[15]~2 $end
$var wire 1 U! u4|clock:m[16]~1_combout $end
$var wire 1 V! u4|clock:m[16]~q $end
$var wire 1 W! u4|clock:m[16]~2 $end
$var wire 1 X! u4|clock:m[17]~1_combout $end
$var wire 1 Y! u4|clock:m[17]~q $end
$var wire 1 Z! u4|clock:m[17]~2 $end
$var wire 1 [! u4|clock:m[18]~1_combout $end
$var wire 1 \! u4|clock:m[18]~q $end
$var wire 1 ]! u4|clock:m[18]~2 $end
$var wire 1 ^! u4|clock:m[19]~2 $end
$var wire 1 _! u4|clock:m[20]~1_combout $end
$var wire 1 `! u4|clock:m[20]~q $end
$var wire 1 a! u4|clock:m[20]~2 $end
$var wire 1 b! u4|clock:m[21]~2 $end
$var wire 1 c! u4|clock:m[22]~2 $end
$var wire 1 d! u4|clock:m[23]~1_combout $end
$var wire 1 e! u4|clock:m[23]~q $end
$var wire 1 f! u4|clock:m[23]~2 $end
$var wire 1 g! u4|clock:m[24]~1_combout $end
$var wire 1 h! u4|clock:m[24]~q $end
$var wire 1 i! u4|clock:m[24]~2 $end
$var wire 1 j! u4|clock:m[25]~1_combout $end
$var wire 1 k! u4|clock:m[25]~q $end
$var wire 1 l! u4|clock:m[25]~2 $end
$var wire 1 m! u4|clock:m[26]~1_combout $end
$var wire 1 n! u4|clock:m[26]~q $end
$var wire 1 o! u4|clock:m[26]~2 $end
$var wire 1 p! u4|clock:m[27]~2 $end
$var wire 1 q! u4|clock:m[28]~1_combout $end
$var wire 1 r! u4|clock:m[28]~q $end
$var wire 1 s! u4|clock:m[28]~2 $end
$var wire 1 t! u4|clock:m[29]~1_combout $end
$var wire 1 u! u4|clock:m[29]~q $end
$var wire 1 v! u4|clock:m[22]~1_combout $end
$var wire 1 w! u4|clock:m[22]~q $end
$var wire 1 x! u4|LessThan0~5_combout $end
$var wire 1 y! u4|clock:m[27]~1_combout $end
$var wire 1 z! u4|clock:m[27]~q $end
$var wire 1 {! u4|LessThan0~6_combout $end
$var wire 1 |! u4|clock:m[15]~1_combout $end
$var wire 1 }! u4|clock:m[15]~q $end
$var wire 1 ~! u4|LessThan0~3_combout $end
$var wire 1 !" u4|LessThan0~7_combout $end
$var wire 1 "" u4|LessThan0~8_combout $end
$var wire 1 #" u4|LessThan0~9_combout $end
$var wire 1 $" u4|tclk~0_combout $end
$var wire 1 %" u4|tclk~q $end
$var wire 1 &" u3|TrigerOut:m[0]~1_combout $end
$var wire 1 '" u3|TrigerOut:m[0]~q $end
$var wire 1 (" u3|TrigerOut:m[0]~2 $end
$var wire 1 )" u3|TrigerOut:m[1]~1_combout $end
$var wire 1 *" u3|TrigerOut:m[1]~q $end
$var wire 1 +" u3|TrigerOut:m[1]~2 $end
$var wire 1 ," u3|TrigerOut:m[2]~1_combout $end
$var wire 1 -" u3|TrigerOut:m[2]~q $end
$var wire 1 ." u3|TrigerOut:m[2]~2 $end
$var wire 1 /" u3|TrigerOut:m[3]~2 $end
$var wire 1 0" u3|TrigerOut:m[4]~1_combout $end
$var wire 1 1" u3|TrigerOut:m[4]~q $end
$var wire 1 2" u3|TrigerOut:m[4]~2 $end
$var wire 1 3" u3|TrigerOut:m[5]~2 $end
$var wire 1 4" u3|TrigerOut:m[6]~2 $end
$var wire 1 5" u3|TrigerOut:m[7]~1_combout $end
$var wire 1 6" u3|TrigerOut:m[7]~q $end
$var wire 1 7" u3|TrigerOut:m[7]~2 $end
$var wire 1 8" u3|TrigerOut:m[8]~1_combout $end
$var wire 1 9" u3|TrigerOut:m[8]~q $end
$var wire 1 :" u3|TrigerOut:m[8]~2 $end
$var wire 1 ;" u3|TrigerOut:m[9]~1_combout $end
$var wire 1 <" u3|TrigerOut:m[9]~q $end
$var wire 1 =" u3|TrigerOut:m[9]~2 $end
$var wire 1 >" u3|TrigerOut:m[10]~1_combout $end
$var wire 1 ?" u3|TrigerOut:m[10]~q $end
$var wire 1 @" u3|TrigerOut:m[10]~2 $end
$var wire 1 A" u3|TrigerOut:m[11]~2 $end
$var wire 1 B" u3|TrigerOut:m[12]~1_combout $end
$var wire 1 C" u3|TrigerOut:m[12]~q $end
$var wire 1 D" u3|TrigerOut:m[12]~2 $end
$var wire 1 E" u3|TrigerOut:m[13]~2 $end
$var wire 1 F" u3|TrigerOut:m[14]~1_combout $end
$var wire 1 G" u3|TrigerOut:m[14]~q $end
$var wire 1 H" u3|TrigerOut:m[14]~2 $end
$var wire 1 I" u3|TrigerOut:m[15]~2 $end
$var wire 1 J" u3|TrigerOut:m[16]~1_combout $end
$var wire 1 K" u3|TrigerOut:m[16]~q $end
$var wire 1 L" u3|TrigerOut:m[16]~2 $end
$var wire 1 M" u3|TrigerOut:m[17]~1_combout $end
$var wire 1 N" u3|TrigerOut:m[17]~q $end
$var wire 1 O" u3|TrigerOut:m[17]~2 $end
$var wire 1 P" u3|TrigerOut:m[18]~1_combout $end
$var wire 1 Q" u3|TrigerOut:m[18]~q $end
$var wire 1 R" u3|TrigerOut:m[18]~2 $end
$var wire 1 S" u3|TrigerOut:m[19]~2 $end
$var wire 1 T" u3|TrigerOut:m[20]~1_combout $end
$var wire 1 U" u3|TrigerOut:m[20]~q $end
$var wire 1 V" u3|TrigerOut:m[20]~2 $end
$var wire 1 W" u3|TrigerOut:m[21]~2 $end
$var wire 1 X" u3|TrigerOut:m[22]~2 $end
$var wire 1 Y" u3|TrigerOut:m[23]~1_combout $end
$var wire 1 Z" u3|TrigerOut:m[23]~q $end
$var wire 1 [" u3|TrigerOut:m[23]~2 $end
$var wire 1 \" u3|TrigerOut:m[24]~1_combout $end
$var wire 1 ]" u3|TrigerOut:m[24]~q $end
$var wire 1 ^" u3|TrigerOut:m[24]~2 $end
$var wire 1 _" u3|TrigerOut:m[25]~1_combout $end
$var wire 1 `" u3|TrigerOut:m[25]~q $end
$var wire 1 a" u3|TrigerOut:m[25]~2 $end
$var wire 1 b" u3|TrigerOut:m[26]~1_combout $end
$var wire 1 c" u3|TrigerOut:m[26]~q $end
$var wire 1 d" u3|TrigerOut:m[26]~2 $end
$var wire 1 e" u3|TrigerOut:m[27]~2 $end
$var wire 1 f" u3|TrigerOut:m[28]~1_combout $end
$var wire 1 g" u3|TrigerOut:m[28]~q $end
$var wire 1 h" u3|TrigerOut:m[28]~2 $end
$var wire 1 i" u3|TrigerOut:m[29]~2 $end
$var wire 1 j" u3|TrigerOut:m[30]~1_combout $end
$var wire 1 k" u3|TrigerOut:m[30]~q $end
$var wire 1 l" u3|TrigerOut:m[29]~1_combout $end
$var wire 1 m" u3|TrigerOut:m[29]~q $end
$var wire 1 n" u3|LessThan0~3_combout $end
$var wire 1 o" u3|TrigerOut:m[19]~1_combout $end
$var wire 1 p" u3|TrigerOut:m[19]~q $end
$var wire 1 q" u3|LessThan0~5_combout $end
$var wire 1 r" u3|TrigerOut:m[22]~1_combout $end
$var wire 1 s" u3|TrigerOut:m[22]~q $end
$var wire 1 t" u3|LessThan0~6_combout $end
$var wire 1 u" u3|TrigerOut:m[13]~1_combout $end
$var wire 1 v" u3|TrigerOut:m[13]~q $end
$var wire 1 w" u3|LessThan0~4_combout $end
$var wire 1 x" u3|LessThan0~8_combout $end
$var wire 1 y" u3|TrigerOut:m[11]~1_combout $end
$var wire 1 z" u3|TrigerOut:m[11]~q $end
$var wire 1 {" u3|TrigerOut:m[6]~1_combout $end
$var wire 1 |" u3|TrigerOut:m[6]~q $end
$var wire 1 }" u3|TrigerOut:m[5]~1_combout $end
$var wire 1 ~" u3|TrigerOut:m[5]~q $end
$var wire 1 !# u3|LessThan0~0_combout $end
$var wire 1 "# u3|LessThan0~1_combout $end
$var wire 1 ## u3|LessThan0~2_combout $end
$var wire 1 $# u3|LessThan0~9_combout $end
$var wire 1 %# u3|tclk~0_combout $end
$var wire 1 &# u3|tclk~q $end
$var wire 1 '# u5|u1|tc [7] $end
$var wire 1 (# u5|u1|tc [6] $end
$var wire 1 )# u5|u1|tc [5] $end
$var wire 1 *# u5|u1|tc [4] $end
$var wire 1 +# u5|u1|tc [3] $end
$var wire 1 ,# u5|u1|tc [2] $end
$var wire 1 -# u5|u1|tc [1] $end
$var wire 1 .# u5|u1|tc [0] $end
$var wire 1 /# u5|u1|q [3] $end
$var wire 1 0# u5|u1|q [2] $end
$var wire 1 1# u5|u1|q [1] $end
$var wire 1 2# u5|u1|q [0] $end
$var wire 1 3# u5|u2|q [3] $end
$var wire 1 4# u5|u2|q [2] $end
$var wire 1 5# u5|u2|q [1] $end
$var wire 1 6# u5|u2|q [0] $end
$upscope $end
$upscope $end
$enddefinitions $end
#0
$dumpvars
0!
0"
0#
0$
0%
0&
0*
0)
0(
0'
0.
0-
0,
0+
x/
00
11
x2
13
14
15
06
07
08
09
0:
0;
0<
0=
0>
0?
0@
0A
0B
0C
0D
1E
0F
0G
0H
0I
0J
0K
0L
0M
0N
0O
0P
1Q
1R
1S
0T
0U
0V
0W
0X
0Y
0Z
0[
0\
0]
0^
0_
0`
1a
0b
0c
1d
0e
0f
0g
0h
0i
1j
0k
1l
0m
0n
0o
0p
0q
1r
0s
1t
1u
0v
0w
0x
1y
0z
1{
0|
0}
0~
0!!
0"!
1#!
0$!
1%!
1&!
0'!
0(!
1)!
0*!
0+!
0,!
0-!
1.!
0/!
00!
01!
12!
03!
04!
05!
16!
07!
08!
09!
0:!
0;!
0<!
0=!
1>!
1?!
0@!
0A!
0B!
0C!
0D!
1E!
0F!
0G!
0H!
0I!
0J!
1K!
1L!
0M!
0N!
0O!
1P!
0Q!
0R!
0S!
1T!
0U!
0V!
0W!
0X!
0Y!
1Z!
0[!
0\!
0]!
1^!
0_!
0`!
0a!
1b!
0c!
0d!
0e!
1f!
0g!
0h!
0i!
0j!
0k!
1l!
0m!
0n!
0o!
1p!
0q!
0r!
0s!
0t!
0u!
0v!
0w!
1x!
0y!
0z!
1{!
0|!
0}!
1~!
1!"
1""
0#"
0$"
0%"
1&"
0'"
0("
0)"
0*"
1+"
0,"
0-"
0."
1/"
00"
01"
02"
13"
04"
05"
06"
17"
08"
09"
0:"
0;"
0<"
1="
0>"
0?"
0@"
1A"
0B"
0C"
0D"
1E"
0F"
0G"
0H"
1I"
0J"
0K"
0L"
0M"
0N"
1O"
0P"
0Q"
0R"
1S"
0T"
0U"
0V"
1W"
0X"
0Y"
0Z"
1["
0\"
0]"
0^"
0_"
0`"
1a"
0b"
0c"
0d"
1e"
0f"
0g"
0h"
1i"
0j"
0k"
0l"
0m"
1n"
0o"
0p"
1q"
0r"
0s"
1t"
0u"
0v"
1w"
1x"
0y"
0z"
0{"
0|"
0}"
0~"
1!#
1"#
1##
0$#
0%#
0&#
0.#
0-#
0,#
0+#
0*#
z)#
z(#
z'#
02#
01#
00#
0/#
06#
05#
04#
03#
$end
#1000
1!
1'!
1(!
0/
1'"
1*!
1.#
1("
0&"
1+!
0)!
0a
1O
1)"
1,!
#2000
0!
0'!
0(!
1/
#3000
1!
1'!
1(!
0/
1*"
0'"
1-!
0*!
0.#
1-#
0+"
0)"
0("
1&"
0.!
0,!
0+!
1)!
1a
1,"
1+"
1)"
1/!
1.!
1,!
0,"
0/!
#4000
0!
0'!
0(!
1/
#5000
1!
1'!
1(!
0/
1'"
1*!
1.#
1("
0&"
1+!
0)!
0a
1b
0O
0+"
0)"
0.!
0,!
1c
1,"
1/!
#6000
0!
0'!
0(!
1/
#7000
1!
1'!
1(!
0/
1-"
0*"
0'"
10!
0-!
0*!
1,#
0.#
0-#
1."
0,"
1+"
1)"
0("
1&"
11!
0/!
1.!
1,!
0+!
1)!
0d
0c
1a
0b
1I
0."
1,"
0)"
1A
01!
1/!
0,!
1P
1d
1c
0I
0A
0P
#8000
0!
0'!
0(!
1/
#9000
1!
1'!
1(!
0/
1'"
1*!
1.#
1("
0&"
1+!
0)!
0a
1O
1)"
1,!
#10000
1"
0!
1T
0'!
0(!
1/
#11000
1!
1'!
1(!
0/
1*"
0'"
1-!
0*!
0.#
1-#
0+"
0)"
0("
1&"
0.!
0,!
0+!
1)!
1a
1."
0,"
1+"
1)"
11!
0/!
1.!
1,!
1I
0."
1,"
1A
01!
1/!
0I
0A
#12000
0!
0'!
0(!
1/
#13000
1!
1'!
1(!
0/
1'"
1*!
1.#
1("
0&"
1+!
0)!
0a
1b
0O
0+"
0)"
0.!
0,!
0d
0c
1."
0,"
11!
0/!
1P
1I
1A
#14000
0!
0'!
0(!
1/
#15000
1!
1'!
1(!
0/
0-"
0*"
0'"
00!
0-!
0*!
0,#
0.#
0-#
1+#
1=
17
0."
1,"
1+"
1)"
0("
1&"
01!
1/!
1.!
1,!
0+!
1)!
1d
1c
1a
0b
1e
0P
0!#
0/"
0I
02!
0A
1/"
1I
0,"
0)"
12!
1A
0/!
0,!
0e
1P
0c
1f
10"
13!
00"
03!
0f
#16000
0!
0'!
0(!
1/
#17000
1!
1'!
1(!
0/
1'"
1*!
1.#
1("
0&"
1+!
0)!
0a
1O
1)"
1,!
#18000
0!
0'!
0(!
1/
#19000
1!
1'!
1(!
0/
1*"
0'"
1-!
0*!
0.#
1-#
0+"
0)"
0("
1&"
0.!
0,!
0+!
1)!
1a
1,"
1+"
1)"
1/!
1.!
1,!
0,"
0/!
#20000
0!
0'!
0(!
1/
#21000
1!
1'!
1(!
0/
1'"
1*!
1.#
1("
0&"
1+!
0)!
0a
1b
0O
0+"
0)"
0.!
0,!
1c
1,"
1/!
#22000
0!
0'!
0(!
1/
#23000
1!
1'!
1(!
0/
1-"
0*"
0'"
10!
0-!
0*!
1,#
0.#
0-#
1."
0,"
1+"
1)"
0("
1&"
11!
0/!
1.!
1,!
0+!
1)!
0d
0c
1a
0b
0/"
0I
0."
1,"
0)"
02!
0A
01!
1/!
0,!
1e
0P
1d
1c
10"
1/"
1I
13!
12!
1A
1f
0e
1P
00"
03!
0f
#24000
0!
0'!
0(!
1/
#25000
1!
1'!
1(!
0/
1'"
1*!
1.#
1("
0&"
1+!
0)!
0a
1O
1)"
1,!
#26000
0!
0'!
0(!
1/
#27000
1!
1'!
1(!
0/
1*"
0'"
1-!
0*!
0.#
1-#
0+"
0)"
0("
1&"
0.!
0,!
0+!
1)!
1a
1."
0,"
1+"
1)"
11!
0/!
1.!
1,!
0/"
0I
0."
1,"
02!
0A
01!
1/!
10"
1/"
1I
13!
12!
1A
00"
03!
#28000
0!
0'!
0(!
1/
#29000
1!
1'!
1(!
0/
1'"
1*!
1.#
1("
0&"
1+!
0)!
0a
1b
0O
0+"
0)"
0.!
0,!
0d
0c
1."
0,"
11!
0/!
1e
0P
0/"
0I
02!
0A
1f
10"
13!
#30000
1#
1$
0!
1V
1U
0'!
0(!
1/
#31000
1!
1'!
1(!
0/
11"
0-"
0*"
0'"
14!
00!
0-!
0*!
1*#
0,#
0.#
0-#
0+#
0=
07
12"
00"
0."
1,"
1+"
1)"
0("
1&"
15!
03!
01!
1/!
1.!
1,!
0+!
1)!
1v
1g
0f
1d
1c
1a
0b
0e
1P
1/"
1I
12!
1A
1}"
0I
0,"
0)"
1:!
0A
0/!
0,!
0P
0c
1f
02"
10"
05!
13!
0}"
0:!
#32000
0!
0'!
0(!
1/
#33000
1!
1'!
1(!
0/
1'"
1*!
1w
1h
1.#
1x
1i
1("
0&"
1+!
0)!
0a
1O
1)"
1,!
1|
1z
1m
1k
13#
14#
16#
1/#
10#
12#
0%!
1}
1$!
0{
0t
1n
1s
0l
1^
1]
1[
1Z
1Y
1W
1+
1,
1.
1'
1(
1*
#34000
0!
0'!
0(!
1/
#35000
1!
1'!
1(!
0/
1*"
0'"
1-!
0*!
0.#
1-#
0+"
0)"
0("
1&"
0.!
0,!
0+!
1)!
1a
1,"
1+"
1)"
1/!
1.!
1,!
0,"
0/!
#36000
0!
0'!
0(!
1/
#37000
1!
1'!
1(!
0/
1'"
1*!
1.#
1("
0&"
1+!
0)!
0a
1b
0O
0+"
0)"
0.!
0,!
1c
1,"
1/!
#38000
0!
0'!
0(!
1/
#39000
1!
1'!
1(!
0/
1-"
0*"
0'"
10!
0-!
0*!
1,#
0.#
0-#
1."
0,"
1+"
1)"
0("
1&"
11!
0/!
1.!
1,!
0+!
1)!
0d
0c
1a
0b
1I
0."
1,"
0)"
1A
01!
1/!
0,!
1P
1d
1c
0I
0A
0P
#40000
0!
0'!
0(!
1/
#41000
1!
1'!
1(!
0/
1'"
1*!
1.#
1("
0&"
1+!
0)!
0a
1O
1)"
1,!
#42000
0!
0'!
0(!
1/
#43000
1!
1'!
1(!
0/
1*"
0'"
1-!
0*!
0.#
1-#
0+"
0)"
0("
1&"
0.!
0,!
0Q
0+!
1)!
1a
1."
0,"
1+"
1)"
11!
0/!
1.!
1,!
1I
0."
1,"
1A
01!
1/!
0I
0A
#44000
0!
0'!
0(!
1/
#45000
1!
1'!
1(!
0/
1'"
1*!
1.#
1("
0&"
1+!
0)!
0a
1b
0O
0+"
0)"
0.!
0,!
0d
0c
1."
0,"
11!
0/!
1P
1I
1A
#46000
0!
0'!
0(!
1/
#47000
1!
1'!
1(!
0/
0-"
0*"
0'"
00!
0-!
0*!
0,#
0.#
0-#
1+#
1=
17
0."
1,"
1+"
1)"
0("
1&"
01!
1/!
1.!
1,!
0+!
1)!
1d
1c
1a
0b
1e
0P
0/"
0I
02!
0A
1/"
1I
0,"
0)"
12!
1A
0/!
0,!
0e
1P
0c
0f
12"
00"
15!
03!
02"
10"
05!
13!
1f
1}"
1:!
0}"
0:!
#48000
0!
0'!
0(!
1/
#49000
1!
1'!
1(!
0/
1'"
1*!
1.#
1("
0&"
1+!
0)!
0a
1O
1)"
1,!
#50000
0!
0'!
0(!
1/
#51000
1!
1'!
1(!
0/
1*"
0'"
1-!
0*!
0.#
1-#
0+"
0)"
0("
1&"
0.!
0,!
0+!
1)!
1a
1,"
1+"
1)"
1/!
1.!
1,!
0,"
0/!
#52000
0!
0'!
0(!
1/
#53000
1!
1'!
1(!
0/
1'"
1*!
1.#
1("
0&"
1+!
0)!
0a
1b
0O
0+"
0)"
0.!
0,!
1c
1,"
1/!
#54000
0!
0'!
0(!
1/
#55000
1!
1'!
1(!
0/
1-"
0*"
0'"
10!
0-!
0*!
1,#
0.#
0-#
1."
0,"
1+"
1)"
0("
1&"
11!
0/!
1.!
1,!
0+!
1)!
0d
0c
1a
0b
0/"
0I
0."
1,"
0)"
02!
0A
01!
1/!
0,!
1e
0P
1d
1c
12"
00"
1/"
1I
15!
03!
12!
1A
0f
0e
1P
1}"
02"
10"
1:!
05!
13!
1f
0}"
0:!
#56000
0!
0'!
0(!
1/
#57000
1!
1'!
1(!
0/
1'"
1*!
1.#
1("
0&"
1+!
0)!
0a
1O
1)"
1,!
#58000
0!
0'!
0(!
1/
#59000
1!
1'!
1(!
0/
1*"
0'"
1-!
0*!
0.#
1-#
0+"
0)"
0("
1&"
0.!
0,!
0+!
1)!
1a
1."
0,"
1+"
1)"
11!
0/!
1.!
1,!
0/"
0I
0."
1,"
02!
0A
01!
1/!
12"
00"
1/"
1I
15!
03!
12!
1A
1}"
02"
10"
1:!
05!
13!
0}"
0:!
#60000
0!
0'!
0(!
1/
#61000
1!
1'!
1(!
0/
1'"
1*!
1.#
1("
0&"
1+!
0)!
0a
1b
0O
0+"
0)"
0.!
0,!
0d
0c
1."
0,"
11!
0/!
1e
0P
0/"
0I
02!
0A
0f
12"
00"
15!
03!
1}"
1:!
#62000
0!
0'!
0(!
1/
#63000
1!
1'!
1(!
0/
1~"
01"
0-"
0*"
0'"
1;!
04!
00!
0-!
0*!
0*#
0,#
0.#
0-#
0+#
0=
07
03"
0}"
02"
10"
0."
1,"
1+"
1)"
0("
1&"
06!
0:!
05!
13!
1Q
01!
1/!
1.!
1,!
0+!
1)!
0v
0g
1f
1d
1c
1a
0b
0e
1P
1/"
1I
12!
1A
1{"
13"
1}"
0I
0,"
0)"
1<!
16!
1:!
0A
0/!
0,!
0P
0c
0f
00"
03!
0{"
0<!
#64000
0!
0'!
0(!
1/
#65000
1!
1'!
1(!
0/
1'"
1*!
0w
0h
1.#
0x
0i
1("
0&"
1+!
0)!
0a
1O
1)"
1,!
#66000
0!
0'!
0(!
1/
#67000
1!
1'!
1(!
0/
1*"
0'"
1-!
0*!
0.#
1-#
0+"
0)"
0("
1&"
0.!
0,!
0+!
1)!
1a
1,"
1+"
1)"
1/!
1.!
1,!
0,"
0/!
#68000
0!
0'!
0(!
1/
#69000
1!
1'!
1(!
0/
1'"
1*!
1.#
1("
0&"
1+!
0)!
0a
1b
0O
0+"
0)"
0.!
0,!
1c
1,"
1/!
#70000
0!
0'!
0(!
1/
#71000
1!
1'!
1(!
0/
1-"
0*"
0'"
10!
0-!
0*!
1,#
0.#
0-#
1."
0,"
1+"
1)"
0("
1&"
11!
0/!
1.!
1,!
0+!
1)!
0d
0c
1a
0b
1I
0."
1,"
0)"
1A
01!
1/!
0,!
1P
1d
1c
0I
0A
0P
#72000
0!
0'!
0(!
1/
#73000
1!
1'!
1(!
0/
1'"
1*!
1.#
1("
0&"
1+!
0)!
0a
1O
1)"
1,!
#74000
0!
0'!
0(!
1/
#75000
1!
1'!
1(!
0/
1*"
0'"
1-!
0*!
0.#
1-#
0+"
0)"
0("
1&"
0.!
0,!
0+!
1)!
1a
1."
0,"
1+"
1)"
11!
0/!
1.!
1,!
1I
0."
1,"
1A
01!
1/!
0I
0A
#76000
0!
0'!
0(!
1/
#77000
1!
1'!
1(!
0/
1'"
1*!
1.#
1("
0&"
1+!
0)!
0a
1b
0O
0+"
0)"
0.!
0,!
0d
0c
1."
0,"
11!
0/!
1P
1I
1A
#78000
0!
0'!
0(!
1/
#79000
1!
1'!
1(!
0/
0-"
0*"
0'"
00!
0-!
0*!
0,#
0.#
0-#
1+#
1=
17
0."
1,"
1+"
1)"
0("
1&"
01!
1/!
1.!
1,!
0+!
1)!
1d
1c
1a
0b
1e
0P
0/"
0I
02!
0A
1/"
1I
0,"
0)"
12!
1A
0/!
0,!
0e
1P
0c
1f
10"
13!
00"
03!
0f
#80000
0!
0'!
0(!
1/
#81000
1!
1'!
1(!
0/
1'"
1*!
1.#
1("
0&"
1+!
0)!
0a
1O
1)"
1,!
#82000
0!
0'!
0(!
1/
