2017_spring_semester/digital_system_design/digital/assignment/rcaAdder/simulation/qsim/rcaAdder.msim.vcd
$comment
	File created using the following command:
		vcd file rcaAdder.msim.vcd -direction
$end
$date
	Mon May 08 19:27:12 2017
$end
$version
	ModelSim Version 10.1d
$end
$timescale
	1ps
$end
$scope module rcaAdder_vlg_vec_tst $end
$var reg 1 ! c_in $end
$var reg 4 " x [3:0] $end
$var reg 4 # y [3:0] $end
$var wire 1 $ carry $end
$var wire 1 % sum [3] $end
$var wire 1 & sum [2] $end
$var wire 1 ' sum [1] $end
$var wire 1 ( sum [0] $end
$var wire 1 ) sampler $end
$scope module i1 $end
$var wire 1 * gnd $end
$var wire 1 + vcc $end
$var wire 1 , unknown $end
$var tri1 1 - devclrn $end
$var tri1 1 . devpor $end
$var tri1 1 / devoe $end
$var wire 1 0 carry~output_o $end
$var wire 1 1 sum[0]~output_o $end
$var wire 1 2 sum[1]~output_o $end
$var wire 1 3 sum[2]~output_o $end
$var wire 1 4 sum[3]~output_o $end
$var wire 1 5 y[2]~input_o $end
$var wire 1 6 x[2]~input_o $end
$var wire 1 7 u3|u3|c~0_combout $end
$var wire 1 8 x[3]~input_o $end
$var wire 1 9 y[3]~input_o $end
$var wire 1 : u4|u3|c~0_combout $end
$var wire 1 ; c_in~input_o $end
$var wire 1 < x[0]~input_o $end
$var wire 1 = y[0]~input_o $end
$var wire 1 > u1|u2|s~0_combout $end
$var wire 1 ? u1|u3|c~0_combout $end
$var wire 1 @ x[1]~input_o $end
$var wire 1 A y[1]~input_o $end
$var wire 1 B u2|u2|s~combout $end
$var wire 1 C u2|u3|c~0_combout $end
$var wire 1 D u3|u2|s~combout $end
$var wire 1 E u4|u2|s~combout $end
$upscope $end
$upscope $end
$enddefinitions $end
#0
$dumpvars
0!
b0 "
b0 #
0$
0(
0'
0&
0%
x)
0*
1+
x,
1-
1.
1/
00
01
02
03
04
05
06
07
08
09
0:
0;
0<
0=
0>
0?
0@
0A
0B
0C
0D
0E
$end
#60000
b1000 "
b1100 "
b1110 "
1@
16
18
0)
1B
1D
1E
12
13
14
1'
1&
1%
#110000
b100 #
b110 #
b111 #
1=
1A
15
1)
1C
17
1>
0B
0D
11
02
03
1(
0'
0&
1D
0E
1:
13
04
10
1&
0%
1$
#120000
b110 "
b10 "
b0 "
0@
06
08
0)
0C
1B
0D
1E
0:
07
12
03
14
00
1'
0&
1%
0$
1D
13
1&
0E
04
0%
#230000
b11 #
b1 #
b0 #
0=
0A
05
1)
0>
0B
0D
01
02
03
0(
0'
0&
#320000
b1000 "
18
0)
1E
14
1%
#330000
b1100 "
16
1)
1D
13
1&
#350000
b1000 #
b1100 #
15
19
0)
17
0D
0E
1:
03
04
10
0&
0%
1$
1E
14
1%
#360000
b1000 "
06
1)
07
1D
13
1&
0E
04
0%
#390000
b1001 "
b1011 "
b11 "
1<
1@
08
0)
1>
1B
1E
0:
11
12
14
00
1(
1'
1%
0$
#420000
b1101 #
1=
1)
1?
0>
1C
01
0(
0B
17
02
0'
0D
03
0&
0E
1:
04
10
0%
1$
#430000
b101 #
b1 #
05
09
0)
07
1D
1E
0:
13
14
00
1&
1%
0$
0E
04
0%
#570000
b10 "
b0 "
0<
0@
1)
0?
0C
1>
1B
11
12
1(
1'
0B
0D
02
03
0'
0&
#600000
b0 #
0=
0)
0>
01
0(
