2017_spring_semester/digital_system_design/digital/assignment/full_adder/simulation/qsim/full_adder.msim.vcd
$comment
	File created using the following command:
		vcd file full_adder.msim.vcd -direction
$end
$date
	Sat Apr 15 11:56:00 2017
$end
$version
	ModelSim Version 10.1d
$end
$timescale
	1ps
$end
$scope module full_adder_vlg_vec_tst $end
$var reg 1 ! w $end
$var reg 1 " x $end
$var reg 1 # y $end
$var wire 1 $ carry $end
$var wire 1 % sum $end
$var wire 1 & sampler $end
$scope module i1 $end
$var wire 1 ' gnd $end
$var wire 1 ( vcc $end
$var wire 1 ) unknown $end
$var tri1 1 * devclrn $end
$var tri1 1 + devpor $end
$var tri1 1 , devoe $end
$var wire 1 - carry~output_o $end
$var wire 1 . sum~output_o $end
$var wire 1 / w~input_o $end
$var wire 1 0 y~input_o $end
$var wire 1 1 x~input_o $end
$var wire 1 2 u3|c~0_combout $end
$var wire 1 3 u2|s~0_combout $end
$upscope $end
$upscope $end
$enddefinitions $end
#0
$dumpvars
0!
0"
0#
0$
0%
x&
0'
1(
x)
1*
1+
1,
0-
0.
0/
00
01
02
03
$end
#10000
1!
1/
0&
13
1.
1%
#20000
1"
0!
11
0/
1&
#30000
1!
1/
0&
03
12
0.
1-
0%
1$
#40000
1#
0"
0!
10
01
0/
1&
13
02
1.
0-
1%
0$
#50000
1!
1/
0&
03
12
0.
1-
0%
1$
#60000
1"
0!
11
0/
1&
#70000
1!
1/
0&
13
1.
1%
#80000
0#
0"
0!
00
01
0/
1&
03
02
0.
0-
0%
0$
#90000
1!
1/
0&
13
1.
1%
#100000
1"
0!
11
0/
1&
#110000
1!
1/
0&
03
12
0.
1-
0%
1$
#120000
1#
0"
0!
10
01
0/
1&
13
02
1.
0-
1%
0$
#130000
1!
1/
0&
03
12
0.
1-
0%
1$
#140000
1"
0!
11
0/
1&
#150000
1!
1/
0&
13
1.
1%
#160000
0#
0"
0!
00
01
0/
1&
03
02
0.
0-
0%
0$
#170000
1!
1/
0&
13
1.
1%
#180000
1"
0!
11
0/
1&
#190000
1!
1/
0&
03
12
0.
1-
0%
1$
#200000
1#
0"
0!
10
01
0/
1&
13
02
1.
0-
1%
0$
#210000
1!
1/
0&
03
12
0.
1-
0%
1$
#220000
1"
0!
11
0/
1&
#230000
1!
1/
0&
13
1.
1%
#240000
0#
0"
0!
00
01
0/
1&
03
02
0.
0-
0%
0$
#250000
1!
1/
0&
13
1.
1%
#260000
1"
0!
11
0/
1&
#270000
1!
1/
0&
03
12
0.
1-
0%
1$
#280000
1#
0"
0!
10
01
0/
1&
13
02
1.
0-
1%
0$
#290000
1!
1/
0&
03
12
0.
1-
0%
1$
#300000
1"
0!
11
0/
1&
#310000
1!
1/
0&
13
1.
1%
#320000
0#
0"
0!
00
01
0/
1&
03
02
0.
0-
0%
0$
#330000
1!
1/
0&
13
1.
1%
#340000
1"
0!
11
0/
1&
#350000
1!
1/
0&
03
12
0.
1-
0%
1$
#360000
1#
0"
0!
10
01
0/
1&
13
02
1.
0-
1%
0$
#370000
1!
1/
0&
03
12
0.
1-
0%
1$
#380000
1"
0!
11
0/
1&
#390000
1!
1/
0&
13
1.
1%
#400000
0#
0"
0!
00
01
0/
1&
03
02
0.
0-
0%
0$
#410000
1!
1/
0&
13
1.
1%
#420000
1"
0!
11
0/
1&
#430000
1!
1/
0&
03
12
0.
1-
0%
1$
#440000
1#
0"
0!
10
01
0/
1&
13
02
1.
0-
1%
0$
#450000
1!
1/
0&
03
12
0.
1-
0%
1$
#460000
1"
0!
11
0/
1&
#470000
1!
1/
0&
13
1.
1%
#480000
0#
0"
0!
00
01
0/
1&
03
02
0.
0-
0%
0$
#490000
1!
1/
0&
13
1.
1%
#500000
1"
0!
11
0/
1&
#510000
1!
1/
0&
03
12
0.
1-
0%
1$
#520000
1#
0"
0!
10
01
0/
1&
13
02
1.
0-
1%
0$
#530000
1!
1/
0&
03
12
0.
1-
0%
1$
#540000
1"
0!
11
0/
1&
#550000
1!
1/
0&
13
1.
1%
#560000
0#
0"
0!
00
01
0/
1&
03
02
0.
0-
0%
0$
#570000
1!
1/
0&
13
1.
1%
#580000
1"
0!
11
0/
1&
#590000
1!
1/
0&
03
12
0.
1-
0%
1$
#600000
1#
0"
0!
10
01
0/
1&
13
02
1.
0-
1%
0$
#610000
1!
1/
0&
03
12
0.
1-
0%
1$
#620000
1"
0!
11
0/
1&
#630000
1!
1/
0&
13
1.
1%
#640000
0#
0"
0!
00
01
0/
1&
03
02
0.
0-
0%
0$
#650000
1!
1/
0&
13
1.
1%
#660000
1"
0!
11
0/
1&
#670000
1!
1/
0&
03
12
0.
1-
0%
1$
#680000
1#
0"
0!
10
01
0/
1&
13
02
1.
0-
1%
0$
#690000
1!
1/
0&
03
12
0.
1-
0%
1$
#700000
1"
0!
11
0/
1&
#710000
1!
1/
0&
13
1.
1%
#720000
0#
0"
0!
00
01
0/
1&
03
02
0.
0-
0%
0$
#730000
1!
1/
0&
13
1.
1%
#740000
1"
0!
11
0/
1&
#750000
1!
1/
0&
03
12
0.
1-
0%
1$
#760000
1#
0"
0!
10
01
0/
1&
13
02
1.
0-
1%
0$
#770000
1!
1/
0&
03
12
0.
1-
0%
1$
#780000
1"
0!
11
0/
1&
#790000
1!
1/
0&
13
1.
1%
#800000
0#
0"
0!
00
01
0/
1&
03
02
0.
0-
0%
0$
#810000
1!
1/
0&
13
1.
1%
#820000
1"
0!
11
0/
1&
#830000
1!
1/
0&
03
12
0.
1-
0%
1$
#840000
1#
0"
0!
10
01
0/
1&
13
02
1.
0-
1%
0$
#850000
1!
1/
0&
03
12
0.
1-
0%
1$
#860000
1"
0!
11
0/
1&
#870000
1!
1/
0&
13
1.
1%
#880000
0#
0"
0!
00
01
0/
1&
03
02
0.
0-
0%
0$
#890000
1!
1/
0&
13
1.
1%
#900000
1"
0!
11
0/
1&
#910000
1!
1/
0&
03
12
0.
1-
0%
1$
#920000
1#
0"
0!
10
01
0/
1&
13
02
1.
0-
1%
0$
#930000
1!
1/
0&
03
12
0.
1-
0%
1$
#940000
1"
0!
11
0/
1&
#950000
1!
1/
0&
13
1.
1%
#960000
0#
0"
0!
00
01
0/
1&
03
02
0.
0-
0%
0$
#970000
1!
1/
0&
13
1.
1%
#980000
1"
0!
11
0/
1&
#990000
1!
1/
0&
03
12
0.
1-
0%
1$
