2017_spring_semester/digital_system_design/digital/0321/hw02/simulation/qsim/hw02.msim.vcd
$comment
	File created using the following command:
		vcd file hw02.msim.vcd -direction
$end
$date
	Tue Mar 21 17:01:36 2017
$end
$version
	ModelSim Version 10.1d
$end
$timescale
	1ps
$end
$scope module hw02_vlg_vec_tst $end
$var reg 4 ! a [3:0] $end
$var reg 4 " b [3:0] $end
$var wire 1 # agtb $end
$var wire 1 $ altb $end
$var wire 1 % sampler $end
$scope module i1 $end
$var wire 1 & gnd $end
$var wire 1 ' vcc $end
$var wire 1 ( unknown $end
$var tri1 1 ) devclrn $end
$var tri1 1 * devpor $end
$var tri1 1 + devoe $end
$var wire 1 , LessThan0~0_combout $end
$var wire 1 - LessThan0~1_combout $end
$var wire 1 . LessThan0~2_combout $end
$var wire 1 / b~combout [3] $end
$var wire 1 0 b~combout [2] $end
$var wire 1 1 b~combout [1] $end
$var wire 1 2 b~combout [0] $end
$var wire 1 3 a~combout [3] $end
$var wire 1 4 a~combout [2] $end
$var wire 1 5 a~combout [1] $end
$var wire 1 6 a~combout [0] $end
$upscope $end
$upscope $end
$enddefinitions $end
#0
$dumpvars
b0 !
b0 "
0#
1$
x%
0&
1'
x(
1)
1*
1+
0,
0-
0.
02
01
00
0/
06
05
04
03
$end
#10000
b1000 !
13
0%
1.
1#
0$
#20000
b1100 !
b100 !
14
03
1%
1-
0.
1.
0#
1$
1#
0$
#30000
b1100 !
13
0%
#40000
b1110 !
b1010 !
b10 !
15
04
03
1%
1,
0-
1-
0.
1.
0#
1$
1#
0$
#50000
b1010 !
13
0%
#60000
b1110 !
b110 !
14
03
1%
#70000
b1110 !
13
0%
#80000
b1111 !
b1101 !
b1001 !
b1 !
16
05
04
03
1%
#90000
b1001 !
13
0%
#100000
b1101 !
b101 !
14
03
1%
#110000
b1101 !
13
0%
#120000
b1111 !
b1011 !
b11 !
15
04
03
1%
#130000
b1011 !
13
0%
#140000
b1111 !
b111 !
14
03
1%
#150000
b1111 !
13
0%
#160000
b1000 "
b1110 !
b1100 !
b1000 !
b0 !
06
05
04
03
1/
1%
0,
0.
0-
0#
1$
#170000
b1000 !
13
0%
#180000
b1100 !
b100 !
14
03
1%
1-
#190000
b1100 !
13
0%
1.
1#
0$
#200000
b1110 !
b1010 !
b10 !
15
04
03
1%
1,
0-
0.
1-
0#
1$
#210000
b1010 !
13
0%
1.
1#
0$
#220000
b1110 !
b110 !
14
03
1%
0.
0#
1$
#230000
b1110 !
13
0%
1.
1#
0$
#240000
b1111 !
b1101 !
b1001 !
b1 !
16
05
04
03
1%
0.
0#
1$
#250000
b1001 !
13
0%
1.
1#
0$
#260000
b1101 !
b101 !
14
03
1%
0.
0#
1$
#270000
b1101 !
13
0%
1.
1#
0$
#280000
b1111 !
b1011 !
b11 !
15
04
03
1%
0.
0#
1$
#290000
b1011 !
13
0%
1.
1#
0$
#300000
b1111 !
b111 !
14
03
1%
0.
0#
1$
#310000
b1111 !
13
0%
1.
1#
0$
#320000
b1100 "
b100 "
b1110 !
b1100 !
b1000 !
b0 !
06
05
04
03
10
0/
1%
0,
0-
0.
0#
1$
#330000
b1000 !
13
0%
1.
1#
0$
#340000
b1100 !
b100 !
14
03
1%
0.
0#
1$
#350000
b1100 !
13
0%
1.
1#
0$
#360000
b1110 !
b1010 !
b10 !
15
04
03
1%
1,
0.
0#
1$
#370000
b1010 !
13
0%
1.
1#
0$
#380000
b1110 !
b110 !
14
03
1%
1-
0.
1.
0#
1$
1#
0$
#390000
b1110 !
13
0%
#400000
b1111 !
b1101 !
b1001 !
b1 !
16
05
04
03
1%
0-
0.
0#
1$
#410000
b1001 !
13
0%
1.
1#
0$
#420000
b1101 !
b101 !
14
03
1%
1-
0.
1.
0#
1$
1#
0$
#430000
b1101 !
13
0%
#440000
b1111 !
b1011 !
b11 !
15
04
03
1%
0-
0.
0#
1$
#450000
b1011 !
13
0%
1.
1#
0$
#460000
b1111 !
b111 !
14
03
1%
1-
0.
1.
0#
1$
1#
0$
#470000
b1111 !
13
0%
#480000
b1100 "
b1110 !
b1100 !
b1000 !
b0 !
06
05
04
03
1/
1%
0,
0-
0.
0#
1$
#490000
b1000 !
13
0%
#500000
b1100 !
b100 !
14
03
1%
#510000
b1100 !
13
0%
#520000
b1110 !
b1010 !
b10 !
15
04
03
1%
1,
#530000
b1010 !
13
0%
#540000
b1110 !
b110 !
14
03
1%
1-
#550000
b1110 !
13
0%
1.
1#
0$
#560000
b1111 !
b1101 !
b1001 !
b1 !
16
05
04
03
1%
0-
0.
0#
1$
#570000
b1001 !
13
0%
#580000
b1101 !
b101 !
14
03
1%
1-
#590000
b1101 !
13
0%
1.
1#
0$
#600000
b1111 !
b1011 !
b11 !
15
04
03
1%
0-
0.
0#
1$
#610000
b1011 !
13
0%
#620000
b1111 !
b111 !
14
03
1%
1-
#630000
b1111 !
13
0%
1.
1#
0$
#640000
b1110 "
b1010 "
b10 "
b1110 !
b1100 !
b1000 !
b0 !
06
05
04
03
11
00
0/
1%
0,
0-
0.
0#
1$
#650000
b1000 !
13
0%
1.
1#
0$
#660000
b1100 !
b100 !
14
03
1%
1-
0.
1.
0#
1$
1#
0$
#670000
b1100 !
13
0%
#680000
b1110 !
b1010 !
b10 !
15
04
03
1%
0-
0.
0#
1$
#690000
b1010 !
13
0%
1.
1#
0$
#700000
b1110 !
b110 !
14
03
1%
1-
0.
1.
0#
1$
1#
0$
#710000
b1110 !
13
0%
#720000
b1111 !
b1101 !
b1001 !
b1 !
16
05
04
03
1%
0-
0.
0#
1$
#730000
b1001 !
13
0%
1.
1#
0$
#740000
b1101 !
b101 !
14
03
1%
1-
0.
1.
0#
1$
1#
0$
#750000
b1101 !
13
0%
#760000
b1111 !
b1011 !
b11 !
15
04
03
1%
1,
0-
1-
0.
1.
0#
1$
1#
0$
#770000
b1011 !
13
0%
#780000
b1111 !
b111 !
14
03
1%
#790000
b1111 !
13
0%
#800000
b1010 "
b1110 !
b1100 !
b1000 !
b0 !
06
05
04
03
1/
1%
0,
0.
0-
0#
1$
#810000
b1000 !
13
0%
#820000
b1100 !
b100 !
14
03
1%
1-
#830000
b1100 !
13
0%
1.
1#
0$
#840000
b1110 !
b1010 !
b10 !
15
04
03
1%
0-
0.
0#
1$
#850000
b1010 !
13
0%
#860000
b1110 !
b110 !
14
03
1%
1-
#870000
b1110 !
13
0%
1.
1#
0$
#880000
b1111 !
b1101 !
b1001 !
b1 !
16
05
04
03
1%
0-
0.
0#
1$
#890000
b1001 !
13
0%
#900000
b1101 !
b101 !
14
03
1%
1-
#910000
b1101 !
13
0%
1.
1#
0$
#920000
b1111 !
b1011 !
b11 !
15
04
03
1%
1,
0-
0.
1-
0#
1$
#930000
b1011 !
13
0%
1.
1#
0$
#940000
b1111 !
b111 !
14
03
1%
0.
0#
1$
#950000
b1111 !
13
0%
1.
1#
0$
#960000
b1110 "
b110 "
b1110 !
b1100 !
b1000 !
b0 !
06
05
04
03
10
0/
1%
0,
0-
0.
0#
1$
#970000
b1000 !
13
0%
1.
1#
0$
#980000
b1100 !
b100 !
14
03
1%
0.
0#
1$
#990000
b1100 !
13
0%
1.
1#
0$
