2017_spring_semester/digital_system_design/digital/assignment/bcdAdder/simulation/qsim/bcdAdder.msim.vcd
$comment
	File created using the following command:
		vcd file bcdAdder.msim.vcd -direction
$end
$date
	Mon Apr 17 01:15:29 2017
$end
$version
	ModelSim Version 10.1d
$end
$timescale
	1ps
$end
$scope module bcdAdder_vlg_vec_tst $end
$var reg 4 ! a [3:0] $end
$var reg 4 " b [3:0] $end
$var reg 1 # carryIn $end
$var wire 1 $ out_put_carry $end
$var wire 1 % sum [3] $end
$var wire 1 & sum [2] $end
$var wire 1 ' sum [1] $end
$var wire 1 ( sum [0] $end
$var wire 1 ) sampler $end
$scope module i1 $end
$var wire 1 * gnd $end
$var wire 1 + vcc $end
$var wire 1 , unknown $end
$var tri1 1 - devclrn $end
$var tri1 1 . devpor $end
$var tri1 1 / devoe $end
$var wire 1 0 out_put_carry~output_o $end
$var wire 1 1 sum[0]~output_o $end
$var wire 1 2 sum[1]~output_o $end
$var wire 1 3 sum[2]~output_o $end
$var wire 1 4 sum[3]~output_o $end
$var wire 1 5 a[2]~input_o $end
$var wire 1 6 b[2]~input_o $end
$var wire 1 7 u1|u3|u2|s~0_combout $end
$var wire 1 8 b[1]~input_o $end
$var wire 1 9 a[1]~input_o $end
$var wire 1 : u4|o~0_combout $end
$var wire 1 ; u1|u3|u3|c~0_combout $end
$var wire 1 < a[3]~input_o $end
$var wire 1 = b[3]~input_o $end
$var wire 1 > u4|o~1_combout $end
$var wire 1 ? b[0]~input_o $end
$var wire 1 @ carryIn~input_o $end
$var wire 1 A a[0]~input_o $end
$var wire 1 B u1|u1|u2|s~0_combout $end
$var wire 1 C u1|u1|u3|c~0_combout $end
$var wire 1 D u5|u2|u1|s~combout $end
$var wire 1 E u1|u2|u3|c~0_combout $end
$var wire 1 F u1|u2|u2|s~combout $end
$var wire 1 G u5|u3|u2|s~0_combout $end
$var wire 1 H u5|u4|u2|s~0_combout $end
$upscope $end
$upscope $end
$enddefinitions $end
#0
$dumpvars
b0 !
b0 "
0#
0$
0(
0'
0&
0%
x)
0*
1+
x,
1-
1.
1/
00
01
02
03
04
05
06
07
08
09
0:
0;
0<
0=
0>
0?
0@
0A
0B
0C
0D
0E
0F
0G
0H
$end
#20000
b100 !
b101 !
b100 "
b101 "
1?
16
1A
15
0)
1C
1;
1F
1:
1D
1H
12
14
1'
1%
0H
1>
04
10
0%
1$
0D
02
0'
#50000
b1 !
b0 !
b100 "
0?
0A
05
1)
0C
0;
17
0F
1D
0>
1G
12
00
13
1'
0$
1&
0D
02
0'
#70000
b10 !
b110 !
19
15
0)
1F
1;
07
1D
12
1'
0G
1>
03
10
0&
1$
0D
02
0'
#90000
b110 "
18
1)
0F
1E
1D
12
1'
#110000
b10 "
b100 !
b0 !
b0 "
09
05
08
06
0)
0E
0:
0;
1G
0>
13
00
1&
0$
0G
0D
03
02
0&
0'
#140000
b1000 !
b1000 "
b1001 !
b1001 "
1?
1=
1A
1<
1)
1C
1>
1F
1:
10
1$
1G
13
1&
0G
1H
03
14
0&
1%
#190000
b1 "
b0 "
0?
0=
0)
0C
1B
0H
0F
0:
11
04
1(
0%
1D
12
1'
1G
1H
0>
13
14
00
1&
1%
0$
0G
0D
03
02
0&
0'
#200000
b1 !
b0 !
0A
0<
1)
0B
0H
01
04
0(
0%
#240000
b10 !
b1000 "
b1010 !
1=
19
1<
0)
1F
1:
1>
1D
10
12
1$
1'
1H
0D
14
02
1%
0'
#260000
b1001 "
1?
1)
1B
11
1(
#280000
b1000 !
b1 "
b0 !
0=
09
0<
0)
0F
0:
0H
0>
1D
04
00
12
0%
0$
1'
0D
02
0'
#290000
b0 "
0?
1)
0B
01
0(
