2017_spring_semester/digital_system_design/digital/0404/reg4/simulation/qsim/reg4.msim.vcd
$comment
	File created using the following command:
		vcd file reg4.msim.vcd -direction
$end
$date
	Wed Apr 12 22:28:52 2017
$end
$version
	ModelSim Version 10.1d
$end
$timescale
	1ps
$end
$scope module reg4_vlg_vec_tst $end
$var reg 1 ! clk $end
$var reg 4 " data_in [3:0] $end
$var reg 4 # treg_reg_in [3:0] $end
$var reg 4 $ treg_reg_out [3:0] $end
$var wire 1 % reg_in [3] $end
$var wire 1 & reg_in [2] $end
$var wire 1 ' reg_in [1] $end
$var wire 1 ( reg_in [0] $end
$var wire 1 ) reg_out [3] $end
$var wire 1 * reg_out [2] $end
$var wire 1 + reg_out [1] $end
$var wire 1 , reg_out [0] $end
$var wire 1 - sampler $end
$scope module i1 $end
$var wire 1 . gnd $end
$var wire 1 / vcc $end
$var wire 1 0 unknown $end
$var tri1 1 1 devclrn $end
$var tri1 1 2 devpor $end
$var tri1 1 3 devoe $end
$var wire 1 4 reg_in[0]~input_o $end
$var wire 1 5 reg_in[1]~input_o $end
$var wire 1 6 reg_in[2]~input_o $end
$var wire 1 7 reg_in[3]~input_o $end
$var wire 1 8 reg_out[0]~input_o $end
$var wire 1 9 reg_out[1]~input_o $end
$var wire 1 : reg_out[2]~input_o $end
$var wire 1 ; reg_out[3]~input_o $end
$var wire 1 < reg_in[0]~output_o $end
$var wire 1 = reg_in[1]~output_o $end
$var wire 1 > reg_in[2]~output_o $end
$var wire 1 ? reg_in[3]~output_o $end
$var wire 1 @ reg_out[0]~output_o $end
$var wire 1 A reg_out[1]~output_o $end
$var wire 1 B reg_out[2]~output_o $end
$var wire 1 C reg_out[3]~output_o $end
$var wire 1 D data_in[0]~input_o $end
$var wire 1 E data_in[1]~input_o $end
$var wire 1 F data_in[2]~input_o $end
$var wire 1 G data_in[3]~input_o $end
$var wire 1 H clk~input_o $end
$var wire 1 I reg_out[0]~reg0feeder_combout $end
$var wire 1 J reg_out[0]~reg0_q $end
$var wire 1 K reg_out[1]~reg0feeder_combout $end
$var wire 1 L reg_out[1]~reg0_q $end
$var wire 1 M reg_out[2]~reg0feeder_combout $end
$var wire 1 N reg_out[2]~reg0_q $end
$var wire 1 O reg_out[3]~reg0feeder_combout $end
$var wire 1 P reg_out[3]~reg0_q $end
$upscope $end
$upscope $end
$enddefinitions $end
#0
$dumpvars
0!
b0 "
bz #
bz $
0(
0'
0&
0%
0,
0+
0*
0)
x-
0.
1/
x0
11
12
13
04
05
06
07
08
09
0:
0;
0<
0=
0>
0?
0@
0A
0B
0C
0D
0E
0F
0G
0H
0I
0J
0K
0L
0M
0N
0O
0P
$end
#10000
b1000 "
0-
1G
1O
1?
1%
17
#20000
b1100 "
b100 "
1-
1F
0G
1M
0O
1>
0?
1&
0%
16
07
#30000
b1100 "
0-
1G
1O
1?
1%
17
#40000
b1110 "
b1010 "
b10 "
1-
1E
0F
0G
1K
0M
0O
1=
0>
0?
1'
0&
0%
15
06
07
#50000
b1010 "
0-
1G
1O
1?
1%
17
#60000
b1110 "
b110 "
1-
1F
0G
1M
0O
1>
0?
1&
0%
16
07
#70000
b1110 "
0-
1G
1O
1?
1%
17
#80000
b1111 "
b1101 "
b1001 "
b1 "
1-
1D
0E
0F
0G
1I
0K
0M
0O
1<
0=
0>
0?
1(
0'
0&
0%
14
05
06
07
#90000
b1001 "
0-
1G
1O
1?
1%
17
#100000
b1101 "
b101 "
1-
1F
0G
1M
0O
1>
0?
1&
0%
16
07
#110000
b1101 "
0-
1G
1O
1?
1%
17
#120000
b1111 "
b1011 "
b11 "
1-
1E
0F
0G
1K
0M
0O
1=
0>
0?
1'
0&
0%
15
06
07
#130000
b1011 "
0-
1G
1O
1?
1%
17
#140000
b1111 "
b111 "
1-
1F
0G
1M
0O
1>
0?
1&
0%
16
07
#150000
b1111 "
0-
1G
1O
1?
1%
17
#160000
b1110 "
b1100 "
b1000 "
b0 "
1-
0D
0E
0F
0G
0I
0K
0M
0O
0<
0=
0>
0?
0(
0'
0&
0%
04
05
06
07
#165000
1!
1H
0-
#170000
b1000 "
0!
0H
1-
1G
1O
1?
1%
17
#175000
1!
1H
0-
1P
1C
1)
1;
#180000
b1100 "
b100 "
0!
0H
1-
1F
0G
1M
0O
1>
0?
1&
0%
16
07
#185000
1!
1H
0-
0P
1N
0C
1B
0)
1*
0;
1:
#190000
b1100 "
0!
0H
1-
1G
1O
1?
1%
17
#195000
1!
1H
0-
1P
1C
1)
1;
#200000
b1110 "
b1010 "
b10 "
0!
0H
1-
1E
0F
0G
1K
0M
0O
1=
0>
0?
1'
0&
0%
15
06
07
#205000
1!
1H
0-
0P
0N
1L
0C
0B
1A
0)
0*
1+
0;
0:
19
#210000
b1010 "
0!
0H
1-
1G
1O
1?
1%
17
#215000
1!
1H
0-
1P
1C
1)
1;
#220000
b1110 "
b110 "
0!
0H
1-
1F
0G
1M
0O
1>
0?
1&
0%
16
07
#225000
1!
1H
0-
0P
1N
0C
1B
0)
1*
0;
1:
#230000
b1110 "
0!
0H
1-
1G
1O
1?
1%
17
#235000
1!
1H
0-
1P
1C
1)
1;
#240000
b1111 "
b1101 "
b1001 "
b1 "
0!
0H
1-
1D
0E
0F
0G
1I
0K
0M
0O
1<
0=
0>
0?
1(
0'
0&
0%
14
05
06
07
#245000
1!
1H
0-
0P
0N
0L
1J
0C
0B
0A
1@
0)
0*
0+
1,
0;
0:
09
18
#250000
b1001 "
0!
0H
1-
1G
1O
1?
1%
17
#255000
1!
1H
0-
1P
1C
1)
1;
#260000
b1101 "
b101 "
0!
0H
1-
1F
0G
1M
0O
1>
0?
1&
0%
16
07
#265000
1!
1H
0-
0P
1N
0C
1B
0)
1*
0;
1:
#270000
b1101 "
0!
0H
1-
1G
1O
1?
1%
17
#275000
1!
1H
0-
1P
1C
1)
1;
#280000
b1111 "
b1011 "
b11 "
0!
0H
1-
1E
0F
0G
1K
0M
0O
1=
0>
0?
1'
0&
0%
15
06
07
#285000
1!
1H
0-
0P
0N
1L
0C
0B
1A
0)
0*
1+
0;
0:
19
#290000
b1011 "
0!
0H
1-
1G
1O
1?
1%
17
#295000
1!
1H
0-
1P
1C
1)
1;
#300000
b1111 "
b111 "
0!
0H
1-
1F
0G
1M
0O
1>
0?
1&
0%
16
07
#305000
1!
1H
0-
0P
1N
0C
1B
0)
1*
0;
1:
#310000
b1111 "
0!
0H
1-
1G
1O
1?
1%
17
#315000
1!
1H
0-
1P
1C
1)
1;
#320000
b1110 "
b1100 "
b1000 "
b0 "
0!
0H
1-
0D
0E
0F
0G
0I
0K
0M
0O
0<
0=
0>
0?
0(
0'
0&
0%
04
05
06
07
#325000
1!
1H
0-
0P
0N
0L
0J
0C
0B
0A
0@
0)
0*
0+
0,
0;
0:
09
08
#330000
b1000 "
0!
0H
1-
1G
1O
1?
1%
17
#335000
1!
1H
0-
1P
1C
1)
1;
#340000
b1100 "
b100 "
0!
0H
1-
1F
0G
1M
0O
1>
0?
1&
0%
16
07
#345000
1!
1H
0-
0P
1N
0C
1B
0)
1*
0;
1:
#350000
b1100 "
0!
0H
1-
1G
1O
1?
1%
17
#355000
1!
1H
0-
1P
1C
1)
1;
#360000
b1110 "
b1010 "
b10 "
0!
0H
1-
1E
0F
0G
1K
0M
0O
1=
0>
0?
1'
0&
0%
15
06
07
#365000
1!
1H
0-
0P
0N
1L
0C
0B
1A
0)
0*
1+
0;
0:
19
#370000
b1010 "
0!
0H
1-
1G
1O
1?
1%
17
#375000
1!
1H
0-
1P
1C
1)
1;
#380000
b1110 "
b110 "
0!
0H
1-
1F
0G
1M
0O
1>
0?
1&
0%
16
07
#385000
1!
1H
0-
0P
1N
0C
1B
0)
1*
0;
1:
#390000
b1110 "
0!
0H
1-
1G
1O
1?
1%
17
#395000
1!
1H
0-
1P
1C
1)
1;
#400000
b1111 "
b1101 "
b1001 "
b1 "
0!
0H
1-
1D
0E
0F
0G
1I
0K
0M
0O
1<
0=
0>
0?
1(
0'
0&
0%
14
05
06
07
#410000
b1001 "
0-
1G
1O
1?
1%
17
#420000
b1101 "
b101 "
1-
1F
0G
1M
0O
1>
0?
1&
0%
16
07
#430000
b1101 "
0-
1G
1O
1?
1%
17
#440000
b1111 "
b1011 "
b11 "
1-
1E
0F
0G
1K
0M
0O
1=
0>
0?
1'
0&
0%
15
06
07
#450000
b1011 "
0-
1G
1O
1?
1%
17
#460000
b1111 "
b111 "
1-
1F
0G
1M
0O
1>
0?
1&
0%
16
07
#470000
b1111 "
0-
1G
1O
1?
1%
17
#480000
b1110 "
b1100 "
b1000 "
b0 "
1-
0D
0E
0F
0G
0I
0K
0M
0O
0<
0=
0>
0?
0(
0'
0&
0%
04
05
06
07
#490000
b1000 "
0-
1G
1O
1?
1%
17
#500000
b1100 "
b100 "
1-
1F
0G
1M
0O
1>
0?
1&
0%
16
07
#510000
b1100 "
0-
1G
1O
1?
1%
17
#520000
b1110 "
b1010 "
b10 "
1-
1E
0F
0G
1K
0M
0O
1=
0>
0?
1'
0&
0%
15
06
07
#530000
b1010 "
0-
1G
1O
1?
1%
17
#540000
b1110 "
b110 "
1-
1F
0G
1M
0O
1>
0?
1&
0%
16
07
#550000
b1110 "
0-
1G
1O
1?
1%
17
#560000
b1111 "
b1101 "
b1001 "
b1 "
1-
1D
0E
0F
0G
1I
0K
0M
0O
1<
0=
0>
0?
1(
0'
0&
0%
14
05
06
07
#570000
b1001 "
0-
1G
1O
1?
1%
17
#580000
b1101 "
b101 "
1-
1F
0G
1M
0O
1>
0?
1&
0%
16
07
#590000
b1101 "
0-
1G
1O
1?
1%
17
#600000
b1111 "
b1011 "
b11 "
1-
1E
0F
0G
1K
0M
0O
1=
0>
0?
1'
0&
0%
15
06
07
#610000
b1011 "
0-
1G
1O
1?
1%
17
#620000
b1111 "
b111 "
1-
1F
0G
1M
0O
1>
0?
1&
0%
16
07
#630000
b1111 "
0-
1G
1O
1?
1%
17
#640000
b1110 "
b1100 "
b1000 "
b0 "
1-
0D
0E
0F
0G
0I
0K
0M
0O
0<
0=
0>
0?
0(
0'
0&
0%
04
05
06
07
#650000
b1000 "
0-
1G
1O
1?
1%
17
#660000
b1100 "
b100 "
1-
1F
0G
1M
0O
1>
0?
1&
0%
16
07
#670000
b1100 "
0-
1G
1O
1?
1%
17
#680000
b1110 "
b1010 "
b10 "
1-
1E
0F
0G
1K
0M
0O
1=
0>
0?
1'
0&
0%
15
06
07
#690000
b1010 "
0-
1G
1O
1?
1%
17
#700000
b1110 "
b110 "
1-
1F
0G
1M
0O
1>
0?
1&
0%
16
07
#710000
b1110 "
0-
1G
1O
1?
1%
17
#720000
b1111 "
b1101 "
b1001 "
b1 "
1-
1D
0E
0F
0G
1I
0K
0M
0O
1<
0=
0>
0?
1(
0'
0&
0%
14
05
06
07
#730000
b1001 "
0-
1G
1O
1?
1%
17
#740000
b1101 "
b101 "
1-
1F
0G
1M
0O
1>
0?
1&
0%
16
07
#750000
b1101 "
0-
1G
1O
1?
1%
17
#760000
b1111 "
b1011 "
b11 "
1-
1E
0F
0G
1K
0M
0O
1=
0>
0?
1'
0&
0%
15
06
07
#770000
b1011 "
0-
1G
1O
1?
1%
17
#780000
b1111 "
b111 "
1-
1F
0G
1M
0O
1>
0?
1&
0%
16
07
#790000
b1111 "
0-
1G
1O
1?
1%
17
#800000
b1110 "
b1100 "
b1000 "
b0 "
1-
0D
0E
0F
0G
0I
0K
0M
0O
0<
0=
0>
0?
0(
0'
0&
0%
04
05
06
07
#810000
b1000 "
0-
1G
1O
1?
1%
17
#820000
b1100 "
b100 "
1-
1F
0G
1M
0O
1>
0?
1&
0%
16
07
#830000
b1100 "
0-
1G
1O
1?
1%
17
#840000
b1110 "
b1010 "
b10 "
1-
1E
0F
0G
1K
0M
0O
1=
0>
0?
1'
0&
0%
15
06
07
#850000
b1010 "
0-
1G
1O
1?
1%
17
#860000
b1110 "
b110 "
1-
1F
0G
1M
0O
1>
0?
1&
0%
16
07
#870000
b1110 "
0-
1G
1O
1?
1%
17
#880000
b1111 "
b1101 "
b1001 "
b1 "
1-
1D
0E
0F
0G
1I
0K
0M
0O
1<
0=
0>
0?
1(
0'
0&
0%
14
05
06
07
#890000
b1001 "
0-
1G
1O
1?
1%
17
#900000
b1101 "
b101 "
1-
1F
0G
1M
0O
1>
0?
1&
0%
16
07
#910000
b1101 "
0-
1G
1O
1?
1%
17
#920000
b1111 "
b1011 "
b11 "
1-
1E
0F
0G
1K
0M
0O
1=
0>
0?
1'
0&
0%
15
06
07
#930000
b1011 "
0-
1G
1O
1?
1%
17
#940000
b1111 "
b111 "
1-
1F
0G
1M
0O
1>
0?
1&
0%
16
07
#950000
b1111 "
0-
1G
1O
1?
1%
17
#960000
b1110 "
b1100 "
b1000 "
b0 "
1-
0D
0E
0F
0G
0I
0K
0M
0O
0<
0=
0>
0?
0(
0'
0&
0%
04
05
06
07
#970000
b1000 "
0-
1G
1O
1?
1%
17
#980000
b1100 "
b100 "
1-
1F
0G
1M
0O
1>
0?
1&
0%
16
07
#990000
b1100 "
0-
1G
1O
1?
1%
17
