2017_spring_semester/digital_system_design/digital/0321/ex02/simulation/qsim/ex02.msim.vcd
$comment
	File created using the following command:
		vcd file ex02.msim.vcd -direction
$end
$date
	Tue Mar 21 16:31:55 2017
$end
$version
	ModelSim Version 10.1d
$end
$timescale
	1ps
$end
$scope module comp_vlg_vec_tst $end
$var reg 2 ! a [1:0] $end
$var reg 2 " b [1:0] $end
$var wire 1 # equal $end
$var wire 1 $ sampler $end
$scope module i1 $end
$var wire 1 % gnd $end
$var wire 1 & vcc $end
$var wire 1 ' unknown $end
$var tri1 1 ( devclrn $end
$var tri1 1 ) devpor $end
$var tri1 1 * devoe $end
$var wire 1 + Equal0~0_combout $end
$var wire 1 , b~combout [1] $end
$var wire 1 - b~combout [0] $end
$var wire 1 . a~combout [1] $end
$var wire 1 / a~combout [0] $end
$upscope $end
$upscope $end
$enddefinitions $end
#0
$dumpvars
b0 !
b0 "
1#
x$
0%
1&
x'
1(
1)
1*
0+
0-
0,
0/
0.
$end
#10000
b10 !
1.
0$
1+
0#
#20000
b11 !
b1 !
1/
0.
1$
#30000
b11 !
1.
0$
#40000
b10 "
b10 !
b0 !
0/
0.
1,
1$
#50000
b10 !
1.
0$
0+
1#
#60000
b11 !
b1 !
1/
0.
1$
1+
0#
#70000
b11 !
1.
0$
#80000
b11 "
b1 "
b10 !
b0 !
0/
0.
1-
0,
1$
#90000
b10 !
1.
0$
#100000
b11 !
b1 !
1/
0.
1$
0+
1#
#110000
b11 !
1.
0$
1+
0#
#120000
b11 "
b10 !
b0 !
0/
0.
1,
1$
#130000
b10 !
1.
0$
#140000
b11 !
b1 !
1/
0.
1$
#150000
b11 !
1.
0$
0+
1#
#160000
b10 "
b0 "
b10 !
b0 !
0/
0.
0-
0,
1$
#170000
b10 !
1.
0$
1+
0#
#180000
b11 !
b1 !
1/
0.
1$
#190000
b11 !
1.
0$
#200000
b10 "
b10 !
b0 !
0/
0.
1,
1$
#210000
b10 !
1.
0$
0+
1#
#220000
b11 !
b1 !
1/
0.
1$
1+
0#
#230000
b11 !
1.
0$
#240000
b11 "
b1 "
b10 !
b0 !
0/
0.
1-
0,
1$
#250000
b10 !
1.
0$
#260000
b11 !
b1 !
1/
0.
1$
0+
1#
#270000
b11 !
1.
0$
1+
0#
#280000
b11 "
b10 !
b0 !
0/
0.
1,
1$
#290000
b10 !
1.
0$
#300000
b11 !
b1 !
1/
0.
1$
#310000
b11 !
1.
0$
0+
1#
#320000
b10 "
b0 "
b10 !
b0 !
0/
0.
0-
0,
1$
#330000
b10 !
1.
0$
1+
0#
#340000
b11 !
b1 !
1/
0.
1$
#350000
b11 !
1.
0$
#360000
b10 "
b10 !
b0 !
0/
0.
1,
1$
#370000
b10 !
1.
0$
0+
1#
#380000
b11 !
b1 !
1/
0.
1$
1+
0#
#390000
b11 !
1.
0$
#400000
b11 "
b1 "
b10 !
b0 !
0/
0.
1-
0,
1$
#410000
b10 !
1.
0$
#420000
b11 !
b1 !
1/
0.
1$
0+
1#
#430000
b11 !
1.
0$
1+
0#
#440000
b11 "
b10 !
b0 !
0/
0.
1,
1$
#450000
b10 !
1.
0$
#460000
b11 !
b1 !
1/
0.
1$
#470000
b11 !
1.
0$
0+
1#
#480000
b10 "
b0 "
b10 !
b0 !
0/
0.
0-
0,
1$
#490000
b10 !
1.
0$
1+
0#
#500000
b11 !
b1 !
1/
0.
1$
#510000
b11 !
1.
0$
#520000
b10 "
b10 !
b0 !
0/
0.
1,
1$
#530000
b10 !
1.
0$
0+
1#
#540000
b11 !
b1 !
1/
0.
1$
1+
0#
#550000
b11 !
1.
0$
#560000
b11 "
b1 "
b10 !
b0 !
0/
0.
1-
0,
1$
#570000
b10 !
1.
0$
#580000
b11 !
b1 !
1/
0.
1$
0+
1#
#590000
b11 !
1.
0$
1+
0#
#600000
b11 "
b10 !
b0 !
0/
0.
1,
1$
#610000
b10 !
1.
0$
#620000
b11 !
b1 !
1/
0.
1$
#630000
b11 !
1.
0$
0+
1#
#640000
b10 "
b0 "
b10 !
b0 !
0/
0.
0-
0,
1$
#650000
b10 !
1.
0$
1+
0#
#660000
b11 !
b1 !
1/
0.
1$
#670000
b11 !
1.
0$
#680000
b10 "
b10 !
b0 !
0/
0.
1,
1$
#690000
b10 !
1.
0$
0+
1#
#700000
b11 !
b1 !
1/
0.
1$
1+
0#
#710000
b11 !
1.
0$
#720000
b11 "
b1 "
b10 !
b0 !
0/
0.
1-
0,
1$
#730000
b10 !
1.
0$
#740000
b11 !
b1 !
1/
0.
1$
0+
1#
#750000
b11 !
1.
0$
1+
0#
#760000
b11 "
b10 !
b0 !
0/
0.
1,
1$
#770000
b10 !
1.
0$
#780000
b11 !
b1 !
1/
0.
1$
#790000
b11 !
1.
0$
0+
1#
#800000
b10 "
b0 "
b10 !
b0 !
0/
0.
0-
0,
1$
#810000
b10 !
1.
0$
1+
0#
#820000
b11 !
b1 !
1/
0.
1$
#830000
b11 !
1.
0$
#840000
b10 "
b10 !
b0 !
0/
0.
1,
1$
#850000
b10 !
1.
0$
0+
1#
#860000
b11 !
b1 !
1/
0.
1$
1+
0#
#870000
b11 !
1.
0$
#880000
b11 "
b1 "
b10 !
b0 !
0/
0.
1-
0,
1$
#890000
b10 !
1.
0$
#900000
b11 !
b1 !
1/
0.
1$
0+
1#
#910000
b11 !
1.
0$
1+
0#
#920000
b11 "
b10 !
b0 !
0/
0.
1,
1$
#930000
b10 !
1.
0$
#940000
b11 !
b1 !
1/
0.
1$
#950000
b11 !
1.
0$
0+
1#
#960000
b10 "
b0 "
b10 !
b0 !
0/
0.
0-
0,
1$
#970000
b10 !
1.
0$
1+
0#
#980000
b11 !
b1 !
1/
0.
1$
#990000
b11 !
1.
0$
