2017_spring_semester/digital_system_design/2013136021_김영규_실습9/jk_counter/simulation/qsim/jk_counter.msim.vcd
$comment
	File created using the following command:
		vcd file jk_counter.msim.vcd -direction
$end
$date
	Sun May 28 04:21:14 2017
$end
$version
	ModelSim Version 10.1d
$end
$timescale
	1ps
$end
$scope module jk_counter_vlg_vec_tst $end
$var reg 1 ! clk $end
$var wire 1 " y_out [3] $end
$var wire 1 # y_out [2] $end
$var wire 1 $ y_out [1] $end
$var wire 1 % y_out [0] $end
$var wire 1 & sampler $end
$scope module i1 $end
$var wire 1 ' gnd $end
$var wire 1 ( vcc $end
$var wire 1 ) unknown $end
$var tri1 1 * devclrn $end
$var tri1 1 + devpor $end
$var tri1 1 , devoe $end
$var wire 1 - y_out[0]~output_o $end
$var wire 1 . y_out[1]~output_o $end
$var wire 1 / y_out[2]~output_o $end
$var wire 1 0 y_out[3]~output_o $end
$var wire 1 1 clk~input_o $end
$var wire 1 2 clk~inputclkctrl_outclk $end
$var wire 1 3 u1|y_out~0_combout $end
$var wire 1 4 u1|y_out~q $end
$var wire 1 5 u2|y_out~0_combout $end
$var wire 1 6 u2|y_out~q $end
$var wire 1 7 u3|y_out~0_combout $end
$var wire 1 8 u3|y_out~q $end
$var wire 1 9 u4|y_out~0_combout $end
$var wire 1 : u4|y_out~q $end
$upscope $end
$upscope $end
$enddefinitions $end
#0
$dumpvars
0!
0%
0$
0#
0"
x&
0'
1(
x)
1*
1+
1,
0-
0.
0/
00
01
02
13
04
05
06
07
08
09
0:
$end
#10000
1!
11
12
0&
14
15
03
1-
1%
#20000
0!
01
02
1&
#30000
1!
11
12
0&
16
04
13
1.
0-
1$
0%
#40000
0!
01
02
1&
#50000
1!
11
12
0&
14
17
05
03
1-
1%
#60000
0!
01
02
1&
#70000
1!
11
12
0&
18
06
04
13
1/
0.
0-
1#
0$
0%
#80000
0!
01
02
1&
#90000
1!
11
12
0&
14
15
03
1-
1%
#100000
0!
01
02
1&
#110000
1!
11
12
0&
16
04
13
1.
0-
1$
0%
#120000
0!
01
02
1&
#130000
1!
11
12
0&
14
19
07
05
03
1-
1%
#140000
0!
01
02
1&
#150000
1!
11
12
0&
1:
08
06
04
13
10
0/
0.
0-
1"
0#
0$
0%
#160000
0!
01
02
1&
#170000
1!
11
12
0&
14
15
03
1-
1%
#180000
0!
01
02
1&
#190000
1!
11
12
0&
16
04
13
1.
0-
1$
0%
#200000
0!
01
02
1&
#210000
1!
11
12
0&
14
17
05
03
1-
1%
#220000
0!
01
02
1&
#230000
1!
11
12
0&
18
06
04
13
1/
0.
0-
1#
0$
0%
#240000
0!
01
02
1&
#250000
1!
11
12
0&
14
15
03
1-
1%
#260000
0!
01
02
1&
#270000
1!
11
12
0&
16
04
13
1.
0-
1$
0%
#280000
0!
01
02
1&
#290000
1!
11
12
0&
14
09
07
05
03
1-
1%
#300000
0!
01
02
1&
#310000
1!
11
12
0&
0:
08
06
04
13
00
0/
0.
0-
0"
0#
0$
0%
#320000
0!
01
02
1&
#330000
1!
11
12
0&
14
15
03
1-
1%
#340000
0!
01
02
1&
#350000
1!
11
12
0&
16
04
13
1.
0-
1$
0%
#360000
0!
01
02
1&
#370000
1!
11
12
0&
14
17
05
03
1-
1%
#380000
0!
01
02
1&
#390000
1!
11
12
0&
18
06
04
13
1/
0.
0-
1#
0$
0%
#400000
0!
01
02
1&
#410000
1!
11
12
0&
14
15
03
1-
1%
#420000
0!
01
02
1&
#430000
1!
11
12
0&
16
04
13
1.
0-
1$
0%
#440000
0!
01
02
1&
#450000
1!
11
12
0&
14
19
07
05
03
1-
1%
#460000
0!
01
02
1&
#470000
1!
11
12
0&
1:
08
06
04
13
10
0/
0.
0-
1"
0#
0$
0%
#480000
0!
01
02
1&
#490000
1!
11
12
0&
14
15
03
1-
1%
#500000
0!
01
02
1&
#510000
1!
11
12
0&
16
04
13
1.
0-
1$
0%
#520000
0!
01
02
1&
#530000
1!
11
12
0&
14
17
05
03
1-
1%
#540000
0!
01
02
1&
#550000
1!
11
12
0&
18
06
04
13
1/
0.
0-
1#
0$
0%
#560000
0!
01
02
1&
#570000
1!
11
12
0&
14
15
03
1-
1%
#580000
0!
01
02
1&
#590000
1!
11
12
0&
16
04
13
1.
0-
1$
0%
#600000
0!
01
02
1&
#610000
1!
11
12
0&
14
09
07
05
03
1-
1%
#620000
0!
01
02
1&
#630000
1!
11
12
0&
0:
08
06
04
13
00
0/
0.
0-
0"
0#
0$
0%
#640000
0!
01
02
1&
#650000
1!
11
12
0&
14
15
03
1-
1%
#660000
0!
01
02
1&
#670000
1!
11
12
0&
16
04
13
1.
0-
1$
0%
#680000
0!
01
02
1&
#690000
1!
11
12
0&
14
17
05
03
1-
1%
#700000
0!
01
02
1&
#710000
1!
11
12
0&
18
06
04
13
1/
0.
0-
1#
0$
0%
#720000
0!
01
02
1&
#730000
1!
11
12
0&
14
15
03
1-
1%
#740000
0!
01
02
1&
#750000
1!
11
12
0&
16
04
13
1.
0-
1$
0%
#760000
0!
01
02
1&
#770000
1!
11
12
0&
14
19
07
05
03
1-
1%
#780000
0!
01
02
1&
#790000
1!
11
12
0&
1:
08
06
04
13
10
0/
0.
0-
1"
0#
0$
0%
#800000
0!
01
02
1&
#810000
1!
11
12
0&
14
15
03
1-
1%
#820000
0!
01
02
1&
#830000
1!
11
12
0&
16
04
13
1.
0-
1$
0%
#840000
0!
01
02
1&
#850000
1!
11
12
0&
14
17
05
03
1-
1%
#860000
0!
01
02
1&
#870000
1!
11
12
0&
18
06
04
13
1/
0.
0-
1#
0$
0%
#880000
0!
01
02
1&
#890000
1!
11
12
0&
14
15
03
1-
1%
#900000
0!
01
02
1&
#910000
1!
11
12
0&
16
04
13
1.
0-
1$
0%
#920000
0!
01
02
1&
#930000
1!
11
12
0&
14
09
07
05
03
1-
1%
#940000
0!
01
02
1&
#950000
1!
11
12
0&
0:
08
06
04
13
00
0/
0.
0-
0"
0#
0$
0%
#960000
0!
01
02
1&
#970000
1!
11
12
0&
14
15
03
1-
1%
#980000
0!
01
02
1&
#990000
1!
11
12
0&
16
04
13
1.
0-
1$
0%
