2017_spring_semester/digital_system_design/digital/digitalwork/or2test/simulation/qsim/or2test.msim.vcd
$comment
	File created using the following command:
		vcd file or2test.msim.vcd -direction
$end
$date
	Tue Mar 14 17:34:41 2017
$end
$version
	ModelSim Version 10.1d
$end
$timescale
	1ps
$end
$scope module or2test_vlg_vec_tst $end
$var reg 1 ! a $end
$var reg 1 " b $end
$var wire 1 # y $end
$var wire 1 $ sampler $end
$scope module i1 $end
$var wire 1 % gnd $end
$var wire 1 & vcc $end
$var wire 1 ' unknown $end
$var tri1 1 ( devclrn $end
$var tri1 1 ) devpor $end
$var tri1 1 * devoe $end
$var wire 1 + a~combout $end
$var wire 1 , b~combout $end
$var wire 1 - y~0_combout $end
$upscope $end
$upscope $end
$enddefinitions $end
#0
$dumpvars
0!
0"
x#
x$
0%
1&
x'
1(
1)
1*
0+
0,
x-
$end
#1600
0-
#6013
0#
#10000
1!
0$
#11090
1+
#12690
1-
#17103
1#
#20000
1"
0!
1$
#21090
0+
1,
#30000
1!
0$
#31090
1+
#40000
0"
0!
1$
#41090
0+
0,
#42690
0-
#47103
0#
#50000
1!
0$
#51090
1+
#52690
1-
#57103
1#
#60000
1"
0!
1$
#61090
0+
1,
#70000
1!
0$
#71090
1+
#80000
0"
0!
1$
#81090
0+
0,
#82690
0-
#87103
0#
#90000
1!
0$
#91090
1+
#92690
1-
#97103
1#
#100000
1"
0!
1$
#101090
0+
1,
#110000
1!
0$
#111090
1+
#120000
0"
0!
1$
#121090
0+
0,
#122690
0-
#127103
0#
#130000
1!
0$
#131090
1+
#132690
1-
#137103
1#
#140000
1"
0!
1$
#141090
0+
1,
#150000
1!
0$
#151090
1+
#160000
0"
0!
1$
#161090
0+
0,
#162690
0-
#167103
0#
#170000
1!
0$
#171090
1+
#172690
1-
#177103
1#
#180000
1"
0!
1$
#181090
0+
1,
#190000
1!
0$
#191090
1+
#200000
0"
0!
1$
#201090
0+
0,
#202690
0-
#207103
0#
#210000
1!
0$
#211090
1+
#212690
1-
#217103
1#
#220000
1"
0!
1$
#221090
0+
1,
#230000
1!
0$
#231090
1+
#240000
0"
0!
1$
#241090
0+
0,
#242690
0-
#247103
0#
#250000
1!
0$
#251090
1+
#252690
1-
#257103
1#
#260000
1"
0!
1$
#261090
0+
1,
#270000
1!
0$
#271090
1+
#280000
0"
0!
1$
#281090
0+
0,
#282690
0-
#287103
0#
#290000
1!
0$
#291090
1+
#292690
1-
#297103
1#
#300000
1"
0!
1$
#301090
0+
1,
#310000
1!
0$
#311090
1+
#320000
0"
0!
1$
#321090
0+
0,
#322690
0-
#327103
0#
#330000
1!
0$
#331090
1+
#332690
1-
#337103
1#
#340000
1"
0!
1$
#341090
0+
1,
#350000
1!
0$
#351090
1+
#360000
0"
0!
1$
#361090
0+
0,
#362690
0-
#367103
0#
#370000
1!
0$
#371090
1+
#372690
1-
#377103
1#
#380000
1"
0!
1$
#381090
0+
1,
#390000
1!
0$
#391090
1+
#400000
0"
0!
1$
#401090
0+
0,
#402690
0-
#407103
0#
#410000
1!
0$
#411090
1+
#412690
1-
#417103
1#
#420000
1"
0!
1$
#421090
0+
1,
#430000
1!
0$
#431090
1+
#440000
0"
0!
1$
#441090
0+
0,
#442690
0-
#447103
0#
#450000
1!
0$
#451090
1+
#452690
1-
#457103
1#
#460000
1"
0!
1$
#461090
0+
1,
#470000
1!
0$
#471090
1+
#480000
0"
0!
1$
#481090
0+
0,
#482690
0-
#487103
0#
#490000
1!
0$
#491090
1+
#492690
1-
#497103
1#
#500000
1"
0!
1$
#501090
0+
1,
#510000
1!
0$
#511090
1+
#520000
0"
0!
1$
#521090
0+
0,
#522690
0-
#527103
0#
#530000
1!
0$
#531090
1+
#532690
1-
#537103
1#
#540000
1"
0!
1$
#541090
0+
1,
#550000
1!
0$
#551090
1+
#560000
0"
0!
1$
#561090
0+
0,
#562690
0-
#567103
0#
#570000
1!
0$
#571090
1+
#572690
1-
#577103
1#
#580000
1"
0!
1$
#581090
0+
1,
#590000
1!
0$
#591090
1+
#600000
0"
0!
1$
#601090
0+
0,
#602690
0-
#607103
0#
#610000
1!
0$
#611090
1+
#612690
1-
#617103
1#
#620000
1"
0!
1$
#621090
0+
1,
#630000
1!
0$
#631090
1+
#640000
0"
0!
1$
#641090
0+
0,
#642690
0-
#647103
0#
#650000
1!
0$
#651090
1+
#652690
1-
#657103
1#
#660000
1"
0!
1$
#661090
0+
1,
#670000
1!
0$
#671090
1+
#680000
0"
0!
1$
#681090
0+
0,
#682690
0-
#687103
0#
#690000
1!
0$
#691090
1+
#692690
1-
#697103
1#
#700000
1"
0!
1$
#701090
0+
1,
#710000
1!
0$
#711090
1+
#720000
0"
0!
1$
#721090
0+
0,
#722690
0-
#727103
0#
#730000
1!
0$
#731090
1+
#732690
1-
#737103
1#
#740000
1"
0!
1$
#741090
0+
1,
#750000
1!
0$
#751090
1+
#760000
0"
0!
1$
#761090
0+
0,
#762690
0-
#767103
0#
#770000
1!
0$
#771090
1+
#772690
1-
#777103
1#
#780000
1"
0!
1$
#781090
0+
1,
#790000
1!
0$
#791090
1+
#800000
0"
0!
1$
#801090
0+
0,
#802690
0-
#807103
0#
#810000
1!
0$
#811090
1+
#812690
1-
#817103
1#
#820000
1"
0!
1$
#821090
0+
1,
#830000
1!
0$
#831090
1+
#840000
0"
0!
1$
#841090
0+
0,
#842690
0-
#847103
0#
#850000
1!
0$
#851090
1+
#852690
1-
#857103
1#
#860000
1"
0!
1$
#861090
0+
1,
#870000
1!
0$
#871090
1+
#880000
0"
0!
1$
#881090
0+
0,
#882690
0-
#887103
0#
#890000
1!
0$
#891090
1+
#892690
1-
#897103
1#
#900000
1"
0!
1$
#901090
0+
1,
#910000
1!
0$
#911090
1+
#920000
0"
0!
1$
#921090
0+
0,
#922690
0-
#927103
0#
#930000
1!
0$
#931090
1+
#932690
1-
#937103
1#
#940000
1"
0!
1$
#941090
0+
1,
#950000
1!
0$
#951090
1+
#960000
0"
0!
1$
#961090
0+
0,
#962690
0-
#967103
0#
#970000
1!
0$
#971090
1+
#972690
1-
#977103
1#
#980000
1"
0!
1$
#981090
0+
1,
#990000
1!
0$
#991090
1+
