2017_spring_semester/digital_system_design/digital/0411/andlogic/simulation/qsim/andlogic.msim.vcd
$comment
	File created using the following command:
		vcd file andlogic.msim.vcd -direction
$end
$date
	Tue Apr 11 16:10:06 2017
$end
$version
	ModelSim Version 10.1d
$end
$timescale
	1ps
$end
$scope module andlogic_vlg_vec_tst $end
$var reg 4 ! a [0:3] $end
$var wire 1 " y $end
$var wire 1 # sampler $end
$scope module i1 $end
$var wire 1 $ gnd $end
$var wire 1 % vcc $end
$var wire 1 & unknown $end
$var tri1 1 ' devclrn $end
$var tri1 1 ( devpor $end
$var tri1 1 ) devoe $end
$var wire 1 * y~output_o $end
$var wire 1 + a[1]~input_o $end
$var wire 1 , a[3]~input_o $end
$var wire 1 - a[0]~input_o $end
$var wire 1 . a[2]~input_o $end
$var wire 1 / temp~0_combout $end
$upscope $end
$upscope $end
$enddefinitions $end
#0
$dumpvars
b0 !
0"
x#
0$
1%
x&
1'
1(
1)
0*
0+
0,
0-
0.
0/
$end
#10000
b1000 !
1-
0#
#20000
b1100 !
b100 !
1+
0-
1#
#30000
b1100 !
1-
0#
#40000
b1110 !
b1010 !
b10 !
1.
0+
0-
1#
#50000
b1010 !
1-
0#
#60000
b1110 !
b110 !
1+
0-
1#
#70000
b1110 !
1-
0#
#80000
b1111 !
b1101 !
b1001 !
b1 !
1,
0.
0+
0-
1#
#90000
b1001 !
1-
0#
#100000
b1101 !
b101 !
1+
0-
1#
#110000
b1101 !
1-
0#
#120000
b1111 !
b1011 !
b11 !
1.
0+
0-
1#
#130000
b1011 !
1-
0#
#140000
b1111 !
b111 !
1+
0-
1#
#150000
b1111 !
1-
0#
1/
1*
1"
#160000
b1110 !
b1100 !
b1000 !
b0 !
0,
0.
0+
0-
1#
0/
0*
0"
#170000
b1000 !
1-
0#
#180000
b1100 !
b100 !
1+
0-
1#
#190000
b1100 !
1-
0#
#200000
b1110 !
b1010 !
b10 !
1.
0+
0-
1#
#210000
b1010 !
1-
0#
#220000
b1110 !
b110 !
1+
0-
1#
#230000
b1110 !
1-
0#
#240000
b1111 !
b1101 !
b1001 !
b1 !
1,
0.
0+
0-
1#
#250000
b1001 !
1-
0#
#260000
b1101 !
b101 !
1+
0-
1#
#270000
b1101 !
1-
0#
#280000
b1111 !
b1011 !
b11 !
1.
0+
0-
1#
#290000
b1011 !
1-
0#
#300000
b1111 !
b111 !
1+
0-
1#
#310000
b1111 !
1-
0#
1/
1*
1"
#320000
b1110 !
b1100 !
b1000 !
b0 !
0,
0.
0+
0-
1#
0/
0*
0"
#330000
b1000 !
1-
0#
#340000
b1100 !
b100 !
1+
0-
1#
#350000
b1100 !
1-
0#
#360000
b1110 !
b1010 !
b10 !
1.
0+
0-
1#
#370000
b1010 !
1-
0#
#380000
b1110 !
b110 !
1+
0-
1#
#390000
b1110 !
1-
0#
#400000
b1111 !
b1101 !
b1001 !
b1 !
1,
0.
0+
0-
1#
#410000
b1001 !
1-
0#
#420000
b1101 !
b101 !
1+
0-
1#
#430000
b1101 !
1-
0#
#440000
b1111 !
b1011 !
b11 !
1.
0+
0-
1#
#450000
b1011 !
1-
0#
#460000
b1111 !
b111 !
1+
0-
1#
#470000
b1111 !
1-
0#
1/
1*
1"
#480000
b1110 !
b1100 !
b1000 !
b0 !
0,
0.
0+
0-
1#
0/
0*
0"
#490000
b1000 !
1-
0#
#500000
b1100 !
b100 !
1+
0-
1#
#510000
b1100 !
1-
0#
#520000
b1110 !
b1010 !
b10 !
1.
0+
0-
1#
#530000
b1010 !
1-
0#
#540000
b1110 !
b110 !
1+
0-
1#
#550000
b1110 !
1-
0#
#560000
b1111 !
b1101 !
b1001 !
b1 !
1,
0.
0+
0-
1#
#570000
b1001 !
1-
0#
#580000
b1101 !
b101 !
1+
0-
1#
#590000
b1101 !
1-
0#
#600000
b1111 !
b1011 !
b11 !
1.
0+
0-
1#
#610000
b1011 !
1-
0#
#620000
b1111 !
b111 !
1+
0-
1#
#630000
b1111 !
1-
0#
1/
1*
1"
#640000
b1110 !
b1100 !
b1000 !
b0 !
0,
0.
0+
0-
1#
0/
0*
0"
#650000
b1000 !
1-
0#
#660000
b1100 !
b100 !
1+
0-
1#
#670000
b1100 !
1-
0#
#680000
b1110 !
b1010 !
b10 !
1.
0+
0-
1#
#690000
b1010 !
1-
0#
#700000
b1110 !
b110 !
1+
0-
1#
#710000
b1110 !
1-
0#
#720000
b1111 !
b1101 !
b1001 !
b1 !
1,
0.
0+
0-
1#
#730000
b1001 !
1-
0#
#740000
b1101 !
b101 !
1+
0-
1#
#750000
b1101 !
1-
0#
#760000
b1111 !
b1011 !
b11 !
1.
0+
0-
1#
#770000
b1011 !
1-
0#
#780000
b1111 !
b111 !
1+
0-
1#
#790000
b1111 !
1-
0#
1/
1*
1"
#800000
b1110 !
b1100 !
b1000 !
b0 !
0,
0.
0+
0-
1#
0/
0*
0"
#810000
b1000 !
1-
0#
#820000
b1100 !
b100 !
1+
0-
1#
#830000
b1100 !
1-
0#
#840000
b1110 !
b1010 !
b10 !
1.
0+
0-
1#
#850000
b1010 !
1-
0#
#860000
b1110 !
b110 !
1+
0-
1#
#870000
b1110 !
1-
0#
#880000
b1111 !
b1101 !
b1001 !
b1 !
1,
0.
0+
0-
1#
#890000
b1001 !
1-
0#
#900000
b1101 !
b101 !
1+
0-
1#
#910000
b1101 !
1-
0#
#920000
b1111 !
b1011 !
b11 !
1.
0+
0-
1#
#930000
b1011 !
1-
0#
#940000
b1111 !
b111 !
1+
0-
1#
#950000
b1111 !
1-
0#
1/
1*
1"
#960000
b1110 !
b1100 !
b1000 !
b0 !
0,
0.
0+
0-
1#
0/
0*
0"
#970000
b1000 !
1-
0#
#980000
b1100 !
b100 !
1+
0-
1#
#990000
b1100 !
1-
0#
