2017_spring_semester/digital_system_design/digital/assignment/parity/simulation/qsim/parity.msim.vcd
$comment
	File created using the following command:
		vcd file parity.msim.vcd -direction
$end
$date
	Mon May 08 20:10:26 2017
$end
$version
	ModelSim Version 10.1d
$end
$timescale
	1ps
$end
$scope module parity_vlg_vec_tst $end
$var reg 5 ! a [4:0] $end
$var wire 1 " parity_check $end
$var wire 1 # sampler $end
$scope module i1 $end
$var wire 1 $ gnd $end
$var wire 1 % vcc $end
$var wire 1 & unknown $end
$var tri1 1 ' devclrn $end
$var tri1 1 ( devpor $end
$var tri1 1 ) devoe $end
$var wire 1 * a[3]~input_o $end
$var wire 1 + parity_check~output_o $end
$var wire 1 , a[4]~input_o $end
$var wire 1 - a[1]~input_o $end
$var wire 1 . a[0]~input_o $end
$var wire 1 / a[2]~input_o $end
$var wire 1 0 g1:0:g2:ux|c~0_combout $end
$var wire 1 1 g1:0:g2:ux|c~combout $end
$upscope $end
$upscope $end
$enddefinitions $end
#0
$dumpvars
b0 !
0"
x#
0$
1%
x&
1'
1(
1)
0*
0+
0,
0-
0.
0/
00
01
$end
#50000
b10000 !
b11000 !
b11100 !
1/
1*
1,
0#
11
1+
1"
#90000
b1100 !
b100 !
b0 !
0/
0*
0,
1#
01
0+
0"
#140000
b10 !
b11 !
b10011 !
b11011 !
b11111 !
1.
1-
1/
1*
1,
0#
11
1+
1"
#430000
b11101 !
b11100 !
b1100 !
b100 !
b0 !
0.
0-
0/
0*
0,
1#
01
0+
0"
#470000
b1000 !
b1100 !
1/
1*
0#
#610000
b100 !
b0 !
0/
0*
1#
#660000
b10 !
b11 !
b1011 !
b1111 !
1.
1-
1/
1*
0#
#780000
b1101 !
b1100 !
b100 !
b0 !
0.
0-
0/
0*
1#
