2017_spring_semester/digital_system_design/digital/assign2/laundry/simulation/qsim/laundry.msim.vcd
$comment
	File created using the following command:
		vcd file laundry.msim.vcd -direction
$end
$date
	Fri May 19 17:29:58 2017
$end
$version
	ModelSim Version 10.1d
$end
$timescale
	1ps
$end
$scope module laundry_vlg_vec_tst $end
$var reg 1 ! clk $end
$var reg 1 " l_start $end
$var reg 1 # pollution $end
$var wire 1 $ dewater $end
$var wire 1 % drainage $end
$var wire 1 & l_stop $end
$var wire 1 ' rinse $end
$var wire 1 ( spin $end
$var wire 1 ) wash $end
$var wire 1 * waterSupply $end
$var wire 1 + sampler $end
$scope module i1 $end
$var wire 1 , gnd $end
$var wire 1 - vcc $end
$var wire 1 . unknown $end
$var tri1 1 / devclrn $end
$var tri1 1 0 devpor $end
$var tri1 1 1 devoe $end
$var wire 1 2 p1:i[1]~q $end
$var wire 1 3 l_stop~output_o $end
$var wire 1 4 wash~output_o $end
$var wire 1 5 rinse~output_o $end
$var wire 1 6 dewater~output_o $end
$var wire 1 7 waterSupply~output_o $end
$var wire 1 8 spin~output_o $end
$var wire 1 9 drainage~output_o $end
$var wire 1 : clk~input_o $end
$var wire 1 ; clk~inputclkctrl_outclk $end
$var wire 1 < l_start~input_o $end
$var wire 1 = Selector0~0_combout $end
$var wire 1 > Add0~0_combout $end
$var wire 1 ? p1:i[0]~q $end
$var wire 1 @ Add0~1 $end
$var wire 1 A Add0~2_combout $end
$var wire 1 B Equal0~0_combout $end
$var wire 1 C l_state.l0~q $end
$var wire 1 D pollution~input_o $end
$var wire 1 E Selector1~0_combout $end
$var wire 1 F l_state.l1~q $end
$var wire 1 G l_state~8_combout $end
$var wire 1 H l_state.l2~q $end
$var wire 1 I l_state.l3~q $end
$var wire 1 J w_state.w2~feeder_combout $end
$var wire 1 K w_state.w2~q $end
$var wire 1 L w_state.w3~feeder_combout $end
$var wire 1 M w_state.w3~q $end
$var wire 1 N w_state.w0~0_combout $end
$var wire 1 O w_state.w0~q $end
$var wire 1 P w_state.w1~0_combout $end
$var wire 1 Q w_state.w1~q $end
$var wire 1 R waterSupply~1_combout $end
$var wire 1 S spin~1_combout $end
$var wire 1 T drainage~1_combout $end
$upscope $end
$upscope $end
$enddefinitions $end
#0
$dumpvars
0!
0"
0#
0$
0%
1&
0'
0(
0)
0*
x+
0,
1-
x.
1/
10
11
02
13
04
05
06
07
08
09
0:
0;
0<
0=
1>
0?
0@
0A
0B
0C
0D
0E
0F
0G
0H
0I
0J
0K
0L
0M
1N
0O
1P
0Q
0R
0S
0T
$end
#10000
1!
1:
1;
0+
1Q
1O
1?
1J
0P
1@
0>
1A
1B
0B
#20000
0!
0:
0;
1+
#30000
1!
1:
1;
0+
0Q
1K
0?
12
0J
1L
0@
1>
0A
1A
#40000
0!
0:
0;
1+
#50000
1!
1:
1;
0+
1M
0K
1?
0N
0L
1@
0>
0A
1B
#60000
0!
0:
0;
1+
#70000
1#
1"
1!
1D
1<
1:
1;
0+
1E
1=
0O
0M
0?
02
1P
1N
0@
1>
1A
0A
0B
#80000
0!
0:
0;
1+
#90000
1!
1:
1;
0+
1Q
1O
1?
1J
0P
1@
0>
1A
1B
0B
#100000
0!
0:
0;
1+
#110000
1!
1:
1;
0+
0Q
1K
0?
12
0J
1L
0@
1>
0A
1A
#120000
0!
0:
0;
1+
#130000
1!
1:
1;
0+
1M
0K
1?
0N
0L
1@
0>
0A
1B
#140000
0!
0:
0;
1+
#150000
0"
1!
0<
1:
1;
0+
0E
0=
0O
0M
1C
0?
02
1F
1P
1N
1E
1=
0@
1>
1A
03
14
0&
1)
0A
0B
#160000
0!
0:
0;
1+
#170000
1!
1:
1;
0+
1Q
1O
1?
1J
0P
1@
0>
1R
1A
1B
17
1*
0B
#180000
0!
0:
0;
1+
#190000
1!
1:
1;
0+
0Q
1K
0?
12
0J
1L
0@
1>
0A
0R
1S
1A
07
18
0*
1(
#200000
0!
0:
0;
1+
#210000
1!
1:
1;
0+
1M
0K
1?
0N
0L
1@
0>
1T
0S
0A
19
08
1%
0(
1B
#220000
0!
0:
0;
1+
#230000
1!
1:
1;
0+
0O
0M
0?
02
1P
1N
0@
1>
1A
0T
0A
0B
09
0%
#240000
0!
0:
0;
1+
#250000
1!
1:
1;
0+
1Q
1O
1?
1J
0P
1@
0>
1R
1A
1B
17
1*
0B
#260000
0!
0:
0;
1+
#270000
1!
1:
1;
0+
0Q
1K
0?
12
0J
1L
0@
1>
0A
0R
1S
1A
07
18
0*
1(
#280000
0!
0:
0;
1+
#290000
1!
1:
1;
0+
1M
0K
1?
0N
0L
1@
0>
1T
0S
0A
19
08
1%
0(
1B
#300000
0!
0:
0;
1+
#310000
1!
1:
1;
0+
0O
0M
0?
02
1P
1N
0@
1>
1A
0T
0A
0B
09
0%
#320000
0!
0:
0;
1+
#330000
1!
1:
1;
0+
1Q
1O
1?
1J
0P
1@
0>
1R
1A
1B
17
1*
0B
#340000
0!
0:
0;
1+
#350000
1!
1:
1;
0+
0Q
1K
0?
12
0J
1L
0@
1>
0A
0R
1S
1A
07
18
0*
1(
#360000
0!
0:
0;
1+
#370000
1!
1:
1;
0+
1M
0K
1?
0N
0L
1@
0>
1T
0S
0A
19
08
1%
0(
1B
#380000
0!
0:
0;
1+
#390000
1!
1:
1;
0+
0O
0M
0?
02
1P
1N
0@
1>
1A
0T
0A
0B
09
0%
#400000
0!
0:
0;
1+
#410000
1!
1:
1;
0+
1Q
1O
1?
1J
0P
1@
0>
1R
1A
1B
17
1*
0B
#420000
0!
0:
0;
1+
#430000
1!
1:
1;
0+
0Q
1K
0?
12
0J
1L
0@
1>
0A
0R
1S
1A
07
18
0*
1(
#440000
0#
0!
0D
0:
0;
1+
1G
0E
#450000
1!
1:
1;
0+
1M
0K
1?
0N
0L
1@
0>
1T
0S
0A
19
08
1%
0(
1B
#460000
0!
0:
0;
1+
#470000
1!
1:
1;
0+
0O
0M
0?
02
1H
0F
1P
1N
0@
1>
1A
0G
15
04
1'
0)
0T
0A
0B
09
0%
#480000
0!
0:
0;
1+
#490000
1!
1:
1;
0+
1Q
1O
1?
1J
0P
1@
0>
1R
1A
1B
17
1*
0B
#500000
0!
0:
0;
1+
#510000
1!
1:
1;
0+
0Q
1K
0?
12
0J
1L
0@
1>
0A
0R
1S
1A
07
18
0*
1(
#520000
0!
0:
0;
1+
#530000
1!
1:
1;
0+
1M
0K
1?
0N
0L
1@
0>
1T
0S
0A
19
08
1%
0(
1B
#540000
0!
0:
0;
1+
#550000
1!
1:
1;
0+
0O
0M
0?
02
1I
0H
1P
1N
0@
1>
1A
0=
16
05
1$
0'
0T
0A
0B
09
0%
#560000
0!
0:
0;
1+
#570000
1!
1:
1;
0+
1Q
1O
1?
1J
0P
1@
0>
1A
1B
0B
#580000
0!
0:
0;
1+
#590000
1!
1:
1;
0+
0Q
1K
0?
12
0J
1L
0@
1>
0A
1A
#600000
0!
0:
0;
1+
#610000
1!
1:
1;
0+
1M
0K
1?
0N
0L
1@
0>
0A
1B
#620000
0!
0:
0;
1+
#630000
1!
1:
1;
0+
0O
0M
0C
0?
02
0I
1P
1N
0@
1>
1A
13
06
1&
0$
0A
0B
#640000
0!
0:
0;
1+
#650000
1!
1:
1;
0+
1Q
1O
1?
1J
0P
1@
0>
1A
1B
0B
#660000
0!
0:
0;
1+
#670000
1!
1:
1;
0+
0Q
1K
0?
12
0J
1L
0@
1>
0A
1A
#680000
0!
0:
0;
1+
#690000
1!
1:
1;
0+
1M
0K
1?
0N
0L
1@
0>
0A
1B
#700000
0!
0:
0;
1+
#710000
1!
1:
1;
0+
0O
0M
0?
02
1P
1N
0@
1>
1A
0A
0B
#720000
0!
0:
0;
1+
#730000
1!
1:
1;
0+
1Q
1O
1?
1J
0P
1@
0>
1A
1B
0B
#740000
0!
0:
0;
1+
#750000
1!
1:
1;
0+
0Q
1K
0?
12
0J
1L
0@
1>
0A
1A
#760000
0!
0:
0;
1+
#770000
1"
1!
1<
1:
1;
0+
1E
1=
1M
0K
1?
0N
0L
1@
0>
0A
1B
#780000
0!
0:
0;
1+
#790000
1!
1:
1;
0+
0O
0M
1C
0?
02
1F
1P
1N
0E
0@
1>
1A
1G
03
14
0&
1)
0A
0B
#800000
0!
0:
0;
1+
#810000
1!
1:
1;
0+
1Q
1O
1?
1J
0P
1@
0>
1R
1A
1B
17
1*
0B
#820000
0!
0:
0;
1+
#830000
1!
1:
1;
0+
0Q
1K
0?
12
0J
1L
0@
1>
0A
0R
1S
1A
07
18
0*
1(
#840000
0!
0:
0;
1+
#850000
0"
1!
0<
1:
1;
0+
1M
0K
1?
0N
0L
1@
0>
1T
0S
0A
19
08
1%
0(
1B
#860000
0!
0:
0;
1+
#870000
1!
1:
1;
0+
0O
0M
0?
02
1H
0F
1P
1N
0@
1>
1A
0G
15
04
1'
0)
0T
0A
0B
09
0%
#880000
0!
0:
0;
1+
#890000
1!
1:
1;
0+
1Q
1O
1?
1J
0P
1@
0>
1R
1A
1B
17
1*
0B
#900000
0!
0:
0;
1+
#910000
1!
1:
1;
0+
0Q
1K
0?
12
0J
1L
0@
1>
0A
0R
1S
1A
07
18
0*
1(
#920000
0!
0:
0;
1+
#930000
1!
1:
1;
0+
1M
0K
1?
0N
0L
1@
0>
1T
0S
0A
19
08
1%
0(
1B
#940000
0!
0:
0;
1+
#950000
1!
1:
1;
0+
0O
0M
0?
02
1I
0H
1P
1N
0@
1>
1A
0=
16
05
1$
0'
0T
0A
0B
09
0%
#960000
0!
0:
0;
1+
#970000
1!
1:
1;
0+
1Q
1O
1?
1J
0P
1@
0>
1A
1B
0B
#980000
0!
0:
0;
1+
#990000
1!
1:
1;
0+
0Q
1K
0?
12
0J
1L
0@
1>
0A
1A
