2017_spring_semester/digital_system_design/2013136021_김영규_실습9/jk_counter2/simulation/qsim/jk_counter2.msim.vcd
$comment
	File created using the following command:
		vcd file jk_counter2.msim.vcd -direction
$end
$date
	Sun May 28 05:02:09 2017
$end
$version
	ModelSim Version 10.1d
$end
$timescale
	1ps
$end
$scope module jk_counter2_vlg_vec_tst $end
$var reg 1 ! clk $end
$var wire 1 " y_out [3] $end
$var wire 1 # y_out [2] $end
$var wire 1 $ y_out [1] $end
$var wire 1 % y_out [0] $end
$var wire 1 & sampler $end
$scope module i1 $end
$var wire 1 ' gnd $end
$var wire 1 ( vcc $end
$var wire 1 ) unknown $end
$var tri1 1 * devclrn $end
$var tri1 1 + devpor $end
$var tri1 1 , devoe $end
$var wire 1 - y_out[0]~output_o $end
$var wire 1 . y_out[1]~output_o $end
$var wire 1 / y_out[2]~output_o $end
$var wire 1 0 y_out[3]~output_o $end
$var wire 1 1 clk~input_o $end
$var wire 1 2 u1|y_out~0_combout $end
$var wire 1 3 u1|y_out~feeder_combout $end
$var wire 1 4 u1|y_out~q $end
$var wire 1 5 u2|y_out~0_combout $end
$var wire 1 6 u2|y_out~q $end
$var wire 1 7 u3|y_out~0_combout $end
$var wire 1 8 u3|y_out~feeder_combout $end
$var wire 1 9 u3|y_out~q $end
$var wire 1 : u4|y_out~0_combout $end
$var wire 1 ; u4|y_out~q $end
$upscope $end
$upscope $end
$enddefinitions $end
#0
$dumpvars
0!
0%
0$
0#
0"
x&
0'
1(
x)
1*
1+
1,
0-
0.
0/
00
01
12
13
04
15
06
17
18
09
1:
0;
$end
#10000
1!
11
0&
14
02
1-
1%
03
#20000
0!
01
1&
#30000
1!
11
0&
04
12
0-
0%
13
16
05
1.
1$
#40000
0!
01
1&
#50000
1!
11
0&
14
02
1-
1%
03
#60000
0!
01
1&
#70000
1!
11
0&
04
12
0-
0%
13
06
15
0.
0$
19
07
1/
1#
08
#80000
0!
01
1&
#90000
1!
11
0&
14
02
1-
1%
03
#100000
0!
01
1&
#110000
1!
11
0&
04
12
0-
0%
13
16
05
1.
1$
#120000
0!
01
1&
#130000
1!
11
0&
14
02
1-
1%
03
#140000
0!
01
1&
#150000
1!
11
0&
04
12
0-
0%
13
06
15
0.
0$
09
17
0/
0#
18
1;
0:
10
1"
#160000
0!
01
1&
#170000
1!
11
0&
14
02
1-
1%
03
#180000
0!
01
1&
#190000
1!
11
0&
04
12
0-
0%
13
16
05
1.
1$
#200000
0!
01
1&
#210000
1!
11
0&
14
02
1-
1%
03
#220000
0!
01
1&
#230000
1!
11
0&
04
12
0-
0%
13
06
15
0.
0$
19
07
1/
1#
08
#240000
0!
01
1&
#250000
1!
11
0&
14
02
1-
1%
03
#260000
0!
01
1&
#270000
1!
11
0&
04
12
0-
0%
13
16
05
1.
1$
#280000
0!
01
1&
#290000
1!
11
0&
14
02
1-
1%
03
#300000
0!
01
1&
#310000
1!
11
0&
04
12
0-
0%
13
06
15
0.
0$
09
17
0/
0#
18
0;
1:
00
0"
#320000
0!
01
1&
#330000
1!
11
0&
14
02
1-
1%
03
#340000
0!
01
1&
#350000
1!
11
0&
04
12
0-
0%
13
16
05
1.
1$
#360000
0!
01
1&
#370000
1!
11
0&
14
02
1-
1%
03
#380000
0!
01
1&
#390000
1!
11
0&
04
12
0-
0%
13
06
15
0.
0$
19
07
1/
1#
08
#400000
0!
01
1&
#410000
1!
11
0&
14
02
1-
1%
03
#420000
0!
01
1&
#430000
1!
11
0&
04
12
0-
0%
13
16
05
1.
1$
#440000
0!
01
1&
#450000
1!
11
0&
14
02
1-
1%
03
#460000
0!
01
1&
#470000
1!
11
0&
04
12
0-
0%
13
06
15
0.
0$
09
17
0/
0#
18
1;
0:
10
1"
#480000
0!
01
1&
#490000
1!
11
0&
14
02
1-
1%
03
#500000
0!
01
1&
#510000
1!
11
0&
04
12
0-
0%
13
16
05
1.
1$
#520000
0!
01
1&
#530000
1!
11
0&
14
02
1-
1%
03
#540000
0!
01
1&
#550000
1!
11
0&
04
12
0-
0%
13
06
15
0.
0$
19
07
1/
1#
08
#560000
0!
01
1&
#570000
1!
11
0&
14
02
1-
1%
03
#580000
0!
01
1&
#590000
1!
11
0&
04
12
0-
0%
13
16
05
1.
1$
#600000
0!
01
1&
#610000
1!
11
0&
14
02
1-
1%
03
#620000
0!
01
1&
#630000
1!
11
0&
04
12
0-
0%
13
06
15
0.
0$
09
17
0/
0#
18
0;
1:
00
0"
#640000
0!
01
1&
#650000
1!
11
0&
14
02
1-
1%
03
#660000
0!
01
1&
#670000
1!
11
0&
04
12
0-
0%
13
16
05
1.
1$
#680000
0!
01
1&
#690000
1!
11
0&
14
02
1-
1%
03
#700000
0!
01
1&
#710000
1!
11
0&
04
12
0-
0%
13
06
15
0.
0$
19
07
1/
1#
08
#720000
0!
01
1&
#730000
1!
11
0&
14
02
1-
1%
03
#740000
0!
01
1&
#750000
1!
11
0&
04
12
0-
0%
13
16
05
1.
1$
#760000
0!
01
1&
#770000
1!
11
0&
14
02
1-
1%
03
#780000
0!
01
1&
#790000
1!
11
0&
04
12
0-
0%
13
06
15
0.
0$
09
17
0/
0#
18
1;
0:
10
1"
#800000
0!
01
1&
#810000
1!
11
0&
14
02
1-
1%
03
#820000
0!
01
1&
#830000
1!
11
0&
04
12
0-
0%
13
16
05
1.
1$
#840000
0!
01
1&
#850000
1!
11
0&
14
02
1-
1%
03
#860000
0!
01
1&
#870000
1!
11
0&
04
12
0-
0%
13
06
15
0.
0$
19
07
1/
1#
08
#880000
0!
01
1&
#890000
1!
11
0&
14
02
1-
1%
03
#900000
0!
01
1&
#910000
1!
11
0&
04
12
0-
0%
13
16
05
1.
1$
#920000
0!
01
1&
#930000
1!
11
0&
14
02
1-
1%
03
#940000
0!
01
1&
#950000
1!
11
0&
04
12
0-
0%
13
06
15
0.
0$
09
17
0/
0#
18
0;
1:
00
0"
#960000
0!
01
1&
#970000
1!
11
0&
14
02
1-
1%
03
#980000
0!
01
1&
#990000
1!
11
0&
04
12
0-
0%
13
16
05
1.
1$
